Sample	CancerType
TCGA-02-0047	GBM
TCGA-02-0055	GBM
TCGA-02-2483	GBM
TCGA-02-2485	GBM
TCGA-02-2486	GBM
TCGA-04-1332	OV
TCGA-04-1337	OV
TCGA-04-1338	OV
TCGA-04-1343	OV
TCGA-04-1347	OV
TCGA-04-1348	OV
TCGA-04-1350	OV
TCGA-04-1356	OV
TCGA-04-1357	OV
TCGA-04-1361	OV
TCGA-04-1362	OV
TCGA-04-1364	OV
TCGA-04-1365	OV
TCGA-04-1514	OV
TCGA-04-1517	OV
TCGA-04-1542	OV
TCGA-05-4244	LUAD
TCGA-05-4249	LUAD
TCGA-05-4250	LUAD
TCGA-05-4382	LUAD
TCGA-05-4384	LUAD
TCGA-05-4389	LUAD
TCGA-05-4390	LUAD
TCGA-05-4395	LUAD
TCGA-05-4396	LUAD
TCGA-05-4397	LUAD
TCGA-05-4398	LUAD
TCGA-05-4402	LUAD
TCGA-05-4403	LUAD
TCGA-05-4405	LUAD
TCGA-05-4410	LUAD
TCGA-05-4415	LUAD
TCGA-05-4417	LUAD
TCGA-05-4418	LUAD
TCGA-05-4420	LUAD
TCGA-05-4422	LUAD
TCGA-05-4424	LUAD
TCGA-05-4425	LUAD
TCGA-05-4426	LUAD
TCGA-05-4427	LUAD
TCGA-05-4430	LUAD
TCGA-05-4432	LUAD
TCGA-05-4433	LUAD
TCGA-05-4434	LUAD
TCGA-05-5420	LUAD
TCGA-05-5423	LUAD
TCGA-05-5425	LUAD
TCGA-05-5428	LUAD
TCGA-05-5429	LUAD
TCGA-05-5715	LUAD
TCGA-06-0125	GBM
TCGA-06-0129	GBM
TCGA-06-0130	GBM
TCGA-06-0132	GBM
TCGA-06-0139	GBM
TCGA-06-0141	GBM
TCGA-06-0152	GBM
TCGA-06-0157	GBM
TCGA-06-0158	GBM
TCGA-06-0168	GBM
TCGA-06-0171	GBM
TCGA-06-0174	GBM
TCGA-06-0178	GBM
TCGA-06-0184	GBM
TCGA-06-0190	GBM
TCGA-06-0210	GBM
TCGA-06-0211	GBM
TCGA-06-0219	GBM
TCGA-06-0221	GBM
TCGA-06-0238	GBM
TCGA-06-0644	GBM
TCGA-06-0645	GBM
TCGA-06-0646	GBM
TCGA-06-0649	GBM
TCGA-06-0686	GBM
TCGA-06-0743	GBM
TCGA-06-0744	GBM
TCGA-06-0745	GBM
TCGA-06-0747	GBM
TCGA-06-0749	GBM
TCGA-06-0750	GBM
TCGA-06-0878	GBM
TCGA-06-0882	GBM
TCGA-06-1804	GBM
TCGA-06-2557	GBM
TCGA-06-2558	GBM
TCGA-06-2559	GBM
TCGA-06-2561	GBM
TCGA-06-2562	GBM
TCGA-06-2563	GBM
TCGA-06-2564	GBM
TCGA-06-2565	GBM
TCGA-06-2567	GBM
TCGA-06-2569	GBM
TCGA-06-2570	GBM
TCGA-06-5408	GBM
TCGA-06-5410	GBM
TCGA-06-5411	GBM
TCGA-06-5412	GBM
TCGA-06-5413	GBM
TCGA-06-5414	GBM
TCGA-06-5415	GBM
TCGA-06-5417	GBM
TCGA-06-5418	GBM
TCGA-06-5856	GBM
TCGA-06-5858	GBM
TCGA-06-5859	GBM
TCGA-08-0386	GBM
TCGA-09-0366	OV
TCGA-09-0369	OV
TCGA-09-1659	OV
TCGA-09-1661	OV
TCGA-09-1662	OV
TCGA-09-1665	OV
TCGA-09-1666	OV
TCGA-09-1669	OV
TCGA-09-2044	OV
TCGA-09-2051	OV
TCGA-09-2053	OV
TCGA-09-2056	OV
TCGA-10-0926	OV
TCGA-10-0927	OV
TCGA-10-0928	OV
TCGA-10-0931	OV
TCGA-10-0933	OV
TCGA-10-0934	OV
TCGA-10-0937	OV
TCGA-10-0938	OV
TCGA-12-0616	GBM
TCGA-12-0618	GBM
TCGA-12-0619	GBM
TCGA-12-0821	GBM
TCGA-12-1597	GBM
TCGA-12-3650	GBM
TCGA-12-3652	GBM
TCGA-12-3653	GBM
TCGA-12-5295	GBM
TCGA-12-5299	GBM
TCGA-13-0714	OV
TCGA-13-0720	OV
TCGA-13-0724	OV
TCGA-13-0726	OV
TCGA-13-0727	OV
TCGA-13-0730	OV
TCGA-13-0760	OV
TCGA-13-0762	OV
TCGA-13-0765	OV
TCGA-13-0795	OV
TCGA-13-0800	OV
TCGA-13-0804	OV
TCGA-13-0884	OV
TCGA-13-0886	OV
TCGA-13-0887	OV
TCGA-13-0890	OV
TCGA-13-0891	OV
TCGA-13-0893	OV
TCGA-13-0897	OV
TCGA-13-0899	OV
TCGA-13-0900	OV
TCGA-13-0905	OV
TCGA-13-0906	OV
TCGA-13-0911	OV
TCGA-13-0913	OV
TCGA-13-0916	OV
TCGA-13-0919	OV
TCGA-13-0920	OV
TCGA-13-0923	OV
TCGA-13-0924	OV
TCGA-13-1403	OV
TCGA-13-1404	OV
TCGA-13-1405	OV
TCGA-13-1407	OV
TCGA-13-1408	OV
TCGA-13-1409	OV
TCGA-13-1410	OV
TCGA-13-1411	OV
TCGA-13-1477	OV
TCGA-13-1481	OV
TCGA-13-1482	OV
TCGA-13-1483	OV
TCGA-13-1487	OV
TCGA-13-1488	OV
TCGA-13-1489	OV
TCGA-13-1492	OV
TCGA-13-1495	OV
TCGA-13-1496	OV
TCGA-13-1497	OV
TCGA-13-1498	OV
TCGA-13-1499	OV
TCGA-13-1501	OV
TCGA-13-1505	OV
TCGA-13-1506	OV
TCGA-13-1507	OV
TCGA-13-1509	OV
TCGA-13-1510	OV
TCGA-13-1512	OV
TCGA-13-2060	OV
TCGA-14-0781	GBM
TCGA-14-0787	GBM
TCGA-14-0789	GBM
TCGA-14-0790	GBM
TCGA-14-0817	GBM
TCGA-14-0871	GBM
TCGA-14-1034	GBM
TCGA-14-1823	GBM
TCGA-14-1825	GBM
TCGA-14-1829	GBM
TCGA-14-2554	GBM
TCGA-15-0742	GBM
TCGA-15-1444	GBM
TCGA-16-0846	GBM
TCGA-16-1045	GBM
TCGA-18-3406	LUSC
TCGA-18-3407	LUSC
TCGA-18-3408	LUSC
TCGA-18-3409	LUSC
TCGA-18-3410	LUSC
TCGA-18-3411	LUSC
TCGA-18-3412	LUSC
TCGA-18-3414	LUSC
TCGA-18-3415	LUSC
TCGA-18-3416	LUSC
TCGA-18-3417	LUSC
TCGA-18-3419	LUSC
TCGA-18-3421	LUSC
TCGA-18-4083	LUSC
TCGA-18-4086	LUSC
TCGA-18-4721	LUSC
TCGA-18-5592	LUSC
TCGA-18-5595	LUSC
TCGA-19-1390	GBM
TCGA-19-2619	GBM
TCGA-19-2620	GBM
TCGA-19-2624	GBM
TCGA-19-2625	GBM
TCGA-19-2629	GBM
TCGA-19-5960	GBM
TCGA-20-0987	OV
TCGA-20-0991	OV
TCGA-21-1070	LUSC
TCGA-21-1071	LUSC
TCGA-21-1076	LUSC
TCGA-21-1077	LUSC
TCGA-21-1078	LUSC
TCGA-21-1081	LUSC
TCGA-21-5782	LUSC
TCGA-21-5784	LUSC
TCGA-21-5786	LUSC
TCGA-21-5787	LUSC
TCGA-22-0944	LUSC
TCGA-22-1002	LUSC
TCGA-22-1011	LUSC
TCGA-22-1012	LUSC
TCGA-22-1016	LUSC
TCGA-22-4591	LUSC
TCGA-22-4593	LUSC
TCGA-22-4595	LUSC
TCGA-22-4599	LUSC
TCGA-22-4601	LUSC
TCGA-22-4604	LUSC
TCGA-22-4607	LUSC
TCGA-22-4613	LUSC
TCGA-22-5471	LUSC
TCGA-22-5472	LUSC
TCGA-22-5473	LUSC
TCGA-22-5474	LUSC
TCGA-22-5477	LUSC
TCGA-22-5478	LUSC
TCGA-22-5480	LUSC
TCGA-22-5482	LUSC
TCGA-22-5485	LUSC
TCGA-22-5489	LUSC
TCGA-22-5491	LUSC
TCGA-22-5492	LUSC
TCGA-23-1021	OV
TCGA-23-1022	OV
TCGA-23-1023	OV
TCGA-23-1024	OV
TCGA-23-1026	OV
TCGA-23-1027	OV
TCGA-23-1028	OV
TCGA-23-1030	OV
TCGA-23-1032	OV
TCGA-23-1110	OV
TCGA-23-1116	OV
TCGA-23-1118	OV
TCGA-23-1120	OV
TCGA-23-1122	OV
TCGA-23-1123	OV
TCGA-23-2077	OV
TCGA-23-2081	OV
TCGA-24-0966	OV
TCGA-24-0968	OV
TCGA-24-0970	OV
TCGA-24-0975	OV
TCGA-24-0979	OV
TCGA-24-0982	OV
TCGA-24-1103	OV
TCGA-24-1104	OV
TCGA-24-1105	OV
TCGA-24-1413	OV
TCGA-24-1416	OV
TCGA-24-1417	OV
TCGA-24-1418	OV
TCGA-24-1419	OV
TCGA-24-1422	OV
TCGA-24-1423	OV
TCGA-24-1424	OV
TCGA-24-1425	OV
TCGA-24-1426	OV
TCGA-24-1427	OV
TCGA-24-1428	OV
TCGA-24-1431	OV
TCGA-24-1434	OV
TCGA-24-1435	OV
TCGA-24-1436	OV
TCGA-24-1463	OV
TCGA-24-1464	OV
TCGA-24-1469	OV
TCGA-24-1470	OV
TCGA-24-1471	OV
TCGA-24-1474	OV
TCGA-24-1544	OV
TCGA-24-1545	OV
TCGA-24-1548	OV
TCGA-24-1549	OV
TCGA-24-1551	OV
TCGA-24-1552	OV
TCGA-24-1553	OV
TCGA-24-1555	OV
TCGA-24-1556	OV
TCGA-24-1557	OV
TCGA-24-1558	OV
TCGA-24-1560	OV
TCGA-24-1562	OV
TCGA-24-1563	OV
TCGA-24-1564	OV
TCGA-24-1565	OV
TCGA-24-1567	OV
TCGA-24-1603	OV
TCGA-24-1604	OV
TCGA-24-1616	OV
TCGA-24-2024	OV
TCGA-24-2038	OV
TCGA-24-2293	OV
TCGA-25-1313	OV
TCGA-25-1315	OV
TCGA-25-1316	OV
TCGA-25-1317	OV
TCGA-25-1318	OV
TCGA-25-1319	OV
TCGA-25-1320	OV
TCGA-25-1321	OV
TCGA-25-1322	OV
TCGA-25-1324	OV
TCGA-25-1326	OV
TCGA-25-1328	OV
TCGA-25-1329	OV
TCGA-25-1623	OV
TCGA-25-1625	OV
TCGA-25-1626	OV
TCGA-25-1627	OV
TCGA-25-1628	OV
TCGA-25-1630	OV
TCGA-25-1632	OV
TCGA-25-1633	OV
TCGA-25-1634	OV
TCGA-25-1635	OV
TCGA-25-2391	OV
TCGA-25-2393	OV
TCGA-26-1442	GBM
TCGA-26-5132	GBM
TCGA-26-5133	GBM
TCGA-26-5134	GBM
TCGA-26-5135	GBM
TCGA-26-5136	GBM
TCGA-26-5139	GBM
TCGA-27-1830	GBM
TCGA-27-1831	GBM
TCGA-27-1832	GBM
TCGA-27-1834	GBM
TCGA-27-1835	GBM
TCGA-27-1837	GBM
TCGA-27-2519	GBM
TCGA-27-2521	GBM
TCGA-27-2523	GBM
TCGA-27-2524	GBM
TCGA-27-2526	GBM
TCGA-27-2528	GBM
TCGA-28-1747	GBM
TCGA-28-1753	GBM
TCGA-28-2499	GBM
TCGA-28-2509	GBM
TCGA-28-2510	GBM
TCGA-28-2513	GBM
TCGA-28-2514	GBM
TCGA-28-5204	GBM
TCGA-28-5207	GBM
TCGA-28-5208	GBM
TCGA-28-5209	GBM
TCGA-28-5213	GBM
TCGA-28-5215	GBM
TCGA-28-5216	GBM
TCGA-28-5218	GBM
TCGA-28-5220	GBM
TCGA-29-2427	OV
TCGA-30-1853	OV
TCGA-30-1891	OV
TCGA-31-1950	OV
TCGA-31-1959	OV
TCGA-32-1970	GBM
TCGA-32-1980	GBM
TCGA-32-1982	GBM
TCGA-32-2615	GBM
TCGA-32-2632	GBM
TCGA-32-2634	GBM
TCGA-32-2638	GBM
TCGA-32-4213	GBM
TCGA-32-5222	GBM
TCGA-33-4532	LUSC
TCGA-33-4533	LUSC
TCGA-33-4538	LUSC
TCGA-33-4547	LUSC
TCGA-33-4566	LUSC
TCGA-33-4582	LUSC
TCGA-33-4583	LUSC
TCGA-33-4586	LUSC
TCGA-33-6737	LUSC
TCGA-34-2596	LUSC
TCGA-34-2600	LUSC
TCGA-34-2608	LUSC
TCGA-34-5231	LUSC
TCGA-34-5232	LUSC
TCGA-34-5234	LUSC
TCGA-34-5236	LUSC
TCGA-34-5239	LUSC
TCGA-34-5240	LUSC
TCGA-34-5241	LUSC
TCGA-34-5927	LUSC
TCGA-34-5928	LUSC
TCGA-34-5929	LUSC
TCGA-35-3615	LUAD
TCGA-35-4122	LUAD
TCGA-35-4123	LUAD
TCGA-35-5375	LUAD
TCGA-36-1568	OV
TCGA-36-1569	OV
TCGA-36-1570	OV
TCGA-36-1571	OV
TCGA-36-1574	OV
TCGA-36-1575	OV
TCGA-36-1576	OV
TCGA-36-1577	OV
TCGA-36-1578	OV
TCGA-36-1580	OV
TCGA-37-3783	LUSC
TCGA-37-3789	LUSC
TCGA-37-4133	LUSC
TCGA-37-4135	LUSC
TCGA-37-4141	LUSC
TCGA-37-5819	LUSC
TCGA-38-4625	LUAD
TCGA-38-4626	LUAD
TCGA-38-4627	LUAD
TCGA-38-4628	LUAD
TCGA-38-4629	LUAD
TCGA-38-4630	LUAD
TCGA-38-4631	LUAD
TCGA-38-4632	LUAD
TCGA-38-6178	LUAD
TCGA-39-5016	LUSC
TCGA-39-5019	LUSC
TCGA-39-5021	LUSC
TCGA-39-5022	LUSC
TCGA-39-5024	LUSC
TCGA-39-5027	LUSC
TCGA-39-5028	LUSC
TCGA-39-5029	LUSC
TCGA-39-5030	LUSC
TCGA-39-5031	LUSC
TCGA-39-5035	LUSC
TCGA-39-5036	LUSC
TCGA-39-5037	LUSC
TCGA-39-5039	LUSC
TCGA-41-2571	GBM
TCGA-41-2572	GBM
TCGA-41-3915	GBM
TCGA-41-4097	GBM
TCGA-41-5651	GBM
TCGA-43-2578	LUSC
TCGA-43-3394	LUSC
TCGA-43-3920	LUSC
TCGA-43-5668	LUSC
TCGA-43-6143	LUSC
TCGA-43-6647	LUSC
TCGA-43-6770	LUSC
TCGA-43-6771	LUSC
TCGA-44-2655	LUAD
TCGA-44-2656	LUAD
TCGA-44-2657	LUAD
TCGA-44-2659	LUAD
TCGA-44-2661	LUAD
TCGA-44-2662	LUAD
TCGA-44-2665	LUAD
TCGA-44-2666	LUAD
TCGA-44-2668	LUAD
TCGA-44-3396	LUAD
TCGA-44-3398	LUAD
TCGA-44-3918	LUAD
TCGA-44-3919	LUAD
TCGA-44-4112	LUAD
TCGA-44-5643	LUAD
TCGA-44-5645	LUAD
TCGA-44-6145	LUAD
TCGA-44-6146	LUAD
TCGA-44-6147	LUAD
TCGA-44-6148	LUAD
TCGA-44-6774	LUAD
TCGA-44-6775	LUAD
TCGA-44-6776	LUAD
TCGA-44-6777	LUAD
TCGA-44-6778	LUAD
TCGA-44-6779	LUAD
TCGA-46-3765	LUSC
TCGA-46-3766	LUSC
TCGA-46-3767	LUSC
TCGA-46-3768	LUSC
TCGA-46-3769	LUSC
TCGA-46-6025	LUSC
TCGA-46-6026	LUSC
TCGA-49-4486	LUAD
TCGA-49-4487	LUAD
TCGA-49-4488	LUAD
TCGA-49-4490	LUAD
TCGA-49-4494	LUAD
TCGA-49-4501	LUAD
TCGA-49-4505	LUAD
TCGA-49-4506	LUAD
TCGA-49-4507	LUAD
TCGA-49-4510	LUAD
TCGA-49-4512	LUAD
TCGA-49-4514	LUAD
TCGA-49-6742	LUAD
TCGA-49-6743	LUAD
TCGA-49-6744	LUAD
TCGA-49-6745	LUAD
TCGA-49-6767	LUAD
TCGA-50-5044	LUAD
TCGA-50-5045	LUAD
TCGA-50-5049	LUAD
TCGA-50-5051	LUAD
TCGA-50-5055	LUAD
TCGA-50-5066	LUAD
TCGA-50-5068	LUAD
TCGA-50-5072	LUAD
TCGA-50-5930	LUAD
TCGA-50-5931	LUAD
TCGA-50-5932	LUAD
TCGA-50-5933	LUAD
TCGA-50-5935	LUAD
TCGA-50-5936	LUAD
TCGA-50-5939	LUAD
TCGA-50-5941	LUAD
TCGA-50-5942	LUAD
TCGA-50-5944	LUAD
TCGA-50-5946	LUAD
TCGA-50-6590	LUAD
TCGA-50-6591	LUAD
TCGA-50-6592	LUAD
TCGA-50-6593	LUAD
TCGA-50-6594	LUAD
TCGA-50-6595	LUAD
TCGA-50-6597	LUAD
TCGA-51-4079	LUSC
TCGA-51-4080	LUSC
TCGA-51-4081	LUSC
TCGA-55-1592	LUAD
TCGA-55-1594	LUAD
TCGA-55-1595	LUAD
TCGA-55-1596	LUAD
TCGA-55-5899	LUAD
TCGA-55-6543	LUAD
TCGA-55-6642	LUAD
TCGA-55-6712	LUAD
TCGA-56-1622	LUSC
TCGA-56-5897	LUSC
TCGA-56-5898	LUSC
TCGA-56-6545	LUSC
TCGA-56-6546	LUSC
TCGA-57-1582	OV
TCGA-57-1583	OV
TCGA-57-1584	OV
TCGA-59-2363	OV
TCGA-60-2698	LUSC
TCGA-60-2707	LUSC
TCGA-60-2708	LUSC
TCGA-60-2709	LUSC
TCGA-60-2710	LUSC
TCGA-60-2711	LUSC
TCGA-60-2712	LUSC
TCGA-60-2713	LUSC
TCGA-60-2715	LUSC
TCGA-60-2719	LUSC
TCGA-60-2720	LUSC
TCGA-60-2721	LUSC
TCGA-60-2722	LUSC
TCGA-60-2723	LUSC
TCGA-60-2724	LUSC
TCGA-60-2725	LUSC
TCGA-60-2726	LUSC
TCGA-61-1728	OV
TCGA-61-1919	OV
TCGA-61-2002	OV
TCGA-61-2009	OV
TCGA-61-2094	OV
TCGA-61-2095	OV
TCGA-61-2101	OV
TCGA-61-2104	OV
TCGA-61-2109	OV
TCGA-61-2110	OV
TCGA-61-2113	OV
TCGA-63-5128	LUSC
TCGA-63-5131	LUSC
TCGA-63-6202	LUSC
TCGA-64-1676	LUAD
TCGA-64-1677	LUAD
TCGA-64-1678	LUAD
TCGA-64-1680	LUAD
TCGA-64-5774	LUAD
TCGA-64-5775	LUAD
TCGA-64-5778	LUAD
TCGA-64-5779	LUAD
TCGA-64-5781	LUAD
TCGA-64-5815	LUAD
TCGA-66-2727	LUSC
TCGA-66-2734	LUSC
TCGA-66-2742	LUSC
TCGA-66-2744	LUSC
TCGA-66-2754	LUSC
TCGA-66-2755	LUSC
TCGA-66-2756	LUSC
TCGA-66-2757	LUSC
TCGA-66-2758	LUSC
TCGA-66-2759	LUSC
TCGA-66-2763	LUSC
TCGA-66-2765	LUSC
TCGA-66-2766	LUSC
TCGA-66-2767	LUSC
TCGA-66-2768	LUSC
TCGA-66-2770	LUSC
TCGA-66-2771	LUSC
TCGA-66-2773	LUSC
TCGA-66-2777	LUSC
TCGA-66-2778	LUSC
TCGA-66-2780	LUSC
TCGA-66-2781	LUSC
TCGA-66-2782	LUSC
TCGA-66-2783	LUSC
TCGA-66-2785	LUSC
TCGA-66-2786	LUSC
TCGA-66-2787	LUSC
TCGA-66-2788	LUSC
TCGA-66-2789	LUSC
TCGA-66-2791	LUSC
TCGA-66-2792	LUSC
TCGA-66-2793	LUSC
TCGA-66-2794	LUSC
TCGA-66-2795	LUSC
TCGA-66-2800	LUSC
TCGA-67-3770	LUAD
TCGA-67-3771	LUAD
TCGA-67-3772	LUAD
TCGA-67-3773	LUAD
TCGA-67-3774	LUAD
TCGA-67-4679	LUAD
TCGA-67-6215	LUAD
TCGA-67-6216	LUAD
TCGA-67-6217	LUAD
TCGA-70-6722	LUSC
TCGA-70-6723	LUSC
TCGA-71-6725	LUAD
TCGA-73-4658	LUAD
TCGA-73-4659	LUAD
TCGA-73-4662	LUAD
TCGA-73-4666	LUAD
TCGA-73-4668	LUAD
TCGA-73-4670	LUAD
TCGA-73-4675	LUAD
TCGA-73-4676	LUAD
TCGA-73-4677	LUAD
TCGA-75-5122	LUAD
TCGA-75-5125	LUAD
TCGA-75-5126	LUAD
TCGA-75-5146	LUAD
TCGA-75-5147	LUAD
TCGA-75-6203	LUAD
TCGA-75-6205	LUAD
TCGA-75-6206	LUAD
TCGA-75-6207	LUAD
TCGA-75-6211	LUAD
TCGA-75-6212	LUAD
TCGA-76-4925	GBM
TCGA-76-4926	GBM
TCGA-76-4927	GBM
TCGA-76-4928	GBM
TCGA-76-4929	GBM
TCGA-76-4931	GBM
TCGA-76-4932	GBM
TCGA-80-5611	LUAD
TCGA-85-6175	LUSC
TCGA-85-6560	LUSC
TCGA-85-6561	LUSC
TCGA-86-6562	LUAD
TCGA-91-6828	LUAD
TCGA-91-6829	LUAD
TCGA-91-6831	LUAD
TCGA-91-6835	LUAD
TCGA-91-6836	LUAD
TCGA-A1-A0SB	BRCA
TCGA-A1-A0SD	BRCA
TCGA-A1-A0SE	BRCA
TCGA-A1-A0SF	BRCA
TCGA-A1-A0SG	BRCA
TCGA-A1-A0SH	BRCA
TCGA-A1-A0SI	BRCA
TCGA-A1-A0SJ	BRCA
TCGA-A1-A0SK	BRCA
TCGA-A1-A0SM	BRCA
TCGA-A1-A0SN	BRCA
TCGA-A1-A0SO	BRCA
TCGA-A1-A0SP	BRCA
TCGA-A1-A0SQ	BRCA
TCGA-A2-A04N	BRCA
TCGA-A2-A04P	BRCA
TCGA-A2-A04Q	BRCA
TCGA-A2-A04R	BRCA
TCGA-A2-A04U	BRCA
TCGA-A2-A04V	BRCA
TCGA-A2-A04W	BRCA
TCGA-A2-A04X	BRCA
TCGA-A2-A04Y	BRCA
TCGA-A2-A0CL	BRCA
TCGA-A2-A0CM	BRCA
TCGA-A2-A0CP	BRCA
TCGA-A2-A0CQ	BRCA
TCGA-A2-A0CS	BRCA
TCGA-A2-A0CT	BRCA
TCGA-A2-A0CU	BRCA
TCGA-A2-A0CV	BRCA
TCGA-A2-A0CW	BRCA
TCGA-A2-A0CX	BRCA
TCGA-A2-A0CZ	BRCA
TCGA-A2-A0D0	BRCA
TCGA-A2-A0D1	BRCA
TCGA-A2-A0D2	BRCA
TCGA-A2-A0D3	BRCA
TCGA-A2-A0D4	BRCA
TCGA-A2-A0EM	BRCA
TCGA-A2-A0EN	BRCA
TCGA-A2-A0EO	BRCA
TCGA-A2-A0EQ	BRCA
TCGA-A2-A0ER	BRCA
TCGA-A2-A0ES	BRCA
TCGA-A2-A0ET	BRCA
TCGA-A2-A0EU	BRCA
TCGA-A2-A0EV	BRCA
TCGA-A2-A0EW	BRCA
TCGA-A2-A0EX	BRCA
TCGA-A2-A0EY	BRCA
TCGA-A2-A0ST	BRCA
TCGA-A2-A0SU	BRCA
TCGA-A2-A0SV	BRCA
TCGA-A2-A0SW	BRCA
TCGA-A2-A0SX	BRCA
TCGA-A2-A0SY	BRCA
TCGA-A2-A0T0	BRCA
TCGA-A2-A0T1	BRCA
TCGA-A2-A0T2	BRCA
TCGA-A2-A0T3	BRCA
TCGA-A2-A0T4	BRCA
TCGA-A2-A0T6	BRCA
TCGA-A2-A0T7	BRCA
TCGA-A2-A0YC	BRCA
TCGA-A2-A0YD	BRCA
TCGA-A2-A0YF	BRCA
TCGA-A2-A0YG	BRCA
TCGA-A2-A0YH	BRCA
TCGA-A2-A0YI	BRCA
TCGA-A2-A0YJ	BRCA
TCGA-A2-A0YK	BRCA
TCGA-A2-A0YL	BRCA
TCGA-A2-A0YM	BRCA
TCGA-A2-A0YT	BRCA
TCGA-A2-A1FV	BRCA
TCGA-A2-A1FW	BRCA
TCGA-A2-A1FX	BRCA
TCGA-A2-A1FZ	BRCA
TCGA-A2-A1G0	BRCA
TCGA-A2-A1G1	BRCA
TCGA-A2-A1G4	BRCA
TCGA-A2-A1G6	BRCA
TCGA-A2-A259	BRCA
TCGA-A2-A25A	BRCA
TCGA-A2-A25B	BRCA
TCGA-A2-A25C	BRCA
TCGA-A2-A25D	BRCA
TCGA-A2-A25E	BRCA
TCGA-A2-A25F	BRCA
TCGA-A3-3308	KIRC
TCGA-A3-3311	KIRC
TCGA-A3-3316	KIRC
TCGA-A3-3317	KIRC
TCGA-A3-3319	KIRC
TCGA-A3-3320	KIRC
TCGA-A3-3322	KIRC
TCGA-A3-3323	KIRC
TCGA-A3-3326	KIRC
TCGA-A3-3346	KIRC
TCGA-A3-3347	KIRC
TCGA-A3-3349	KIRC
TCGA-A3-3357	KIRC
TCGA-A3-3358	KIRC
TCGA-A3-3362	KIRC
TCGA-A3-3363	KIRC
TCGA-A3-3365	KIRC
TCGA-A3-3367	KIRC
TCGA-A3-3370	KIRC
TCGA-A3-3372	KIRC
TCGA-A3-3373	KIRC
TCGA-A3-3376	KIRC
TCGA-A3-3378	KIRC
TCGA-A3-3380	KIRC
TCGA-A3-3382	KIRC
TCGA-A3-3383	KIRC
TCGA-A3-3385	KIRC
TCGA-A3-3387	KIRC
TCGA-A4-7286	KIRP
TCGA-A4-7287	KIRP
TCGA-A4-7288	KIRP
TCGA-A4-7583	KIRP
TCGA-A4-7584	KIRP
TCGA-A4-7585	KIRP
TCGA-A4-7732	KIRP
TCGA-A4-7734	KIRP
TCGA-A4-7828	KIRP
TCGA-A4-7915	KIRP
TCGA-A4-7996	KIRP
TCGA-A4-7997	KIRP
TCGA-A5-A0G3	UCEC
TCGA-A5-A0G5	UCEC
TCGA-A5-A0G9	UCEC
TCGA-A5-A0GA	UCEC
TCGA-A5-A0GB	UCEC
TCGA-A5-A0GD	UCEC
TCGA-A5-A0GE	UCEC
TCGA-A5-A0GH	UCEC
TCGA-A5-A0GI	UCEC
TCGA-A5-A0GJ	UCEC
TCGA-A5-A0GM	UCEC
TCGA-A5-A0GN	UCEC
TCGA-A5-A0GP	UCEC
TCGA-A5-A0GQ	UCEC
TCGA-A5-A0GU	UCEC
TCGA-A5-A0GV	UCEC
TCGA-A5-A0GW	UCEC
TCGA-A5-A0GX	UCEC
TCGA-A5-A0R6	UCEC
TCGA-A5-A0R7	UCEC
TCGA-A5-A0R8	UCEC
TCGA-A5-A0R9	UCEC
TCGA-A5-A0RA	UCEC
TCGA-A5-A0VO	UCEC
TCGA-A5-A0VP	UCEC
TCGA-A5-A0VQ	UCEC
TCGA-A6-2672	COAD
TCGA-A6-2674	COAD
TCGA-A6-2676	COAD
TCGA-A6-2677	COAD
TCGA-A6-2678	COAD
TCGA-A6-2683	COAD
TCGA-A6-3807	COAD
TCGA-A6-3808	COAD
TCGA-A6-3810	COAD
TCGA-A7-A0CD	BRCA
TCGA-A7-A0CE	BRCA
TCGA-A7-A0CG	BRCA
TCGA-A7-A0CH	BRCA
TCGA-A7-A0CJ	BRCA
TCGA-A7-A0D9	BRCA
TCGA-A7-A0DA	BRCA
TCGA-A7-A0DB	BRCA
TCGA-A7-A13D	BRCA
TCGA-A7-A13F	BRCA
TCGA-A7-A13G	BRCA
TCGA-A7-A26E	BRCA
TCGA-A7-A26F	BRCA
TCGA-A7-A26G	BRCA
TCGA-A7-A26H	BRCA
TCGA-A7-A26I	BRCA
TCGA-A7-A26J	BRCA
TCGA-A8-A06N	BRCA
TCGA-A8-A06O	BRCA
TCGA-A8-A06P	BRCA
TCGA-A8-A06Q	BRCA
TCGA-A8-A06R	BRCA
TCGA-A8-A06T	BRCA
TCGA-A8-A06U	BRCA
TCGA-A8-A06X	BRCA
TCGA-A8-A06Y	BRCA
TCGA-A8-A06Z	BRCA
TCGA-A8-A075	BRCA
TCGA-A8-A076	BRCA
TCGA-A8-A079	BRCA
TCGA-A8-A07B	BRCA
TCGA-A8-A07C	BRCA
TCGA-A8-A07E	BRCA
TCGA-A8-A07F	BRCA
TCGA-A8-A07G	BRCA
TCGA-A8-A07I	BRCA
TCGA-A8-A07J	BRCA
TCGA-A8-A07L	BRCA
TCGA-A8-A07O	BRCA
TCGA-A8-A07P	BRCA
TCGA-A8-A07R	BRCA
TCGA-A8-A07U	BRCA
TCGA-A8-A07W	BRCA
TCGA-A8-A07Z	BRCA
TCGA-A8-A081	BRCA
TCGA-A8-A082	BRCA
TCGA-A8-A083	BRCA
TCGA-A8-A084	BRCA
TCGA-A8-A085	BRCA
TCGA-A8-A086	BRCA
TCGA-A8-A08A	BRCA
TCGA-A8-A08B	BRCA
TCGA-A8-A08F	BRCA
TCGA-A8-A08G	BRCA
TCGA-A8-A08H	BRCA
TCGA-A8-A08I	BRCA
TCGA-A8-A08J	BRCA
TCGA-A8-A08L	BRCA
TCGA-A8-A08O	BRCA
TCGA-A8-A08P	BRCA
TCGA-A8-A08R	BRCA
TCGA-A8-A08S	BRCA
TCGA-A8-A08T	BRCA
TCGA-A8-A08X	BRCA
TCGA-A8-A08Z	BRCA
TCGA-A8-A090	BRCA
TCGA-A8-A091	BRCA
TCGA-A8-A092	BRCA
TCGA-A8-A093	BRCA
TCGA-A8-A094	BRCA
TCGA-A8-A095	BRCA
TCGA-A8-A096	BRCA
TCGA-A8-A097	BRCA
TCGA-A8-A099	BRCA
TCGA-A8-A09A	BRCA
TCGA-A8-A09B	BRCA
TCGA-A8-A09C	BRCA
TCGA-A8-A09D	BRCA
TCGA-A8-A09E	BRCA
TCGA-A8-A09G	BRCA
TCGA-A8-A09I	BRCA
TCGA-A8-A09K	BRCA
TCGA-A8-A09M	BRCA
TCGA-A8-A09N	BRCA
TCGA-A8-A09Q	BRCA
TCGA-A8-A09R	BRCA
TCGA-A8-A09T	BRCA
TCGA-A8-A09V	BRCA
TCGA-A8-A09W	BRCA
TCGA-A8-A09X	BRCA
TCGA-A8-A0A1	BRCA
TCGA-A8-A0A2	BRCA
TCGA-A8-A0A4	BRCA
TCGA-A8-A0A7	BRCA
TCGA-A8-A0A9	BRCA
TCGA-A8-A0AB	BRCA
TCGA-A8-A0AD	BRCA
TCGA-AA-3514	COAD
TCGA-AA-3516	COAD
TCGA-AA-3517	COAD
TCGA-AA-3518	COAD
TCGA-AA-3519	COAD
TCGA-AA-3520	COAD
TCGA-AA-3521	COAD
TCGA-AA-3522	COAD
TCGA-AA-3524	COAD
TCGA-AA-3525	COAD
TCGA-AA-3526	COAD
TCGA-AA-3527	COAD
TCGA-AA-3529	COAD
TCGA-AA-3530	COAD
TCGA-AA-3531	COAD
TCGA-AA-3532	COAD
TCGA-AA-3534	COAD
TCGA-AA-3538	COAD
TCGA-AA-3542	COAD
TCGA-AA-3543	COAD
TCGA-AA-3544	COAD
TCGA-AA-3548	COAD
TCGA-AA-3549	COAD
TCGA-AA-3552	COAD
TCGA-AA-3553	COAD
TCGA-AA-3554	COAD
TCGA-AA-3555	COAD
TCGA-AA-3556	COAD
TCGA-AA-3560	COAD
TCGA-AA-3561	COAD
TCGA-AA-3562	COAD
TCGA-AA-3664	COAD
TCGA-AA-3666	COAD
TCGA-AA-3667	COAD
TCGA-AA-3672	COAD
TCGA-AA-3673	COAD
TCGA-AA-3678	COAD
TCGA-AA-3679	COAD
TCGA-AA-3680	COAD
TCGA-AA-3681	COAD
TCGA-AA-3684	COAD
TCGA-AA-3685	COAD
TCGA-AA-3688	COAD
TCGA-AA-3692	COAD
TCGA-AA-3693	COAD
TCGA-AA-3695	COAD
TCGA-AA-3696	COAD
TCGA-AA-3710	COAD
TCGA-AA-3715	COAD
TCGA-AA-3811	COAD
TCGA-AA-3812	COAD
TCGA-AA-3814	COAD
TCGA-AA-3818	COAD
TCGA-AA-3819	COAD
TCGA-AA-3821	COAD
TCGA-AA-3831	COAD
TCGA-AA-3833	COAD
TCGA-AA-3837	COAD
TCGA-AA-3842	COAD
TCGA-AA-3844	COAD
TCGA-AA-3845	COAD
TCGA-AA-3846	COAD
TCGA-AA-3848	COAD
TCGA-AA-3850	COAD
TCGA-AA-3851	COAD
TCGA-AA-3852	COAD
TCGA-AA-3854	COAD
TCGA-AA-3855	COAD
TCGA-AA-3856	COAD
TCGA-AA-3858	COAD
TCGA-AA-3860	COAD
TCGA-AA-3864	COAD
TCGA-AA-3866	COAD
TCGA-AA-3867	COAD
TCGA-AA-3869	COAD
TCGA-AA-3870	COAD
TCGA-AA-3872	COAD
TCGA-AA-3875	COAD
TCGA-AA-3877	COAD
TCGA-AA-3930	COAD
TCGA-AA-3939	COAD
TCGA-AA-3941	COAD
TCGA-AA-3947	COAD
TCGA-AA-3949	COAD
TCGA-AA-3952	COAD
TCGA-AA-3955	COAD
TCGA-AA-3956	COAD
TCGA-AA-3966	COAD
TCGA-AA-3971	COAD
TCGA-AA-3972	COAD
TCGA-AA-3973	COAD
TCGA-AA-3975	COAD
TCGA-AA-3976	COAD
TCGA-AA-3977	COAD
TCGA-AA-3979	COAD
TCGA-AA-3980	COAD
TCGA-AA-3982	COAD
TCGA-AA-3984	COAD
TCGA-AA-3986	COAD
TCGA-AA-3989	COAD
TCGA-AA-3994	COAD
TCGA-AA-A004	COAD
TCGA-AA-A00A	COAD
TCGA-AA-A00D	COAD
TCGA-AA-A00E	COAD
TCGA-AA-A00F	COAD
TCGA-AA-A00J	COAD
TCGA-AA-A00K	COAD
TCGA-AA-A00L	COAD
TCGA-AA-A00N	COAD
TCGA-AA-A00O	COAD
TCGA-AA-A00Q	COAD
TCGA-AA-A00R	COAD
TCGA-AA-A00U	COAD
TCGA-AA-A00W	COAD
TCGA-AA-A00Z	COAD
TCGA-AA-A010	COAD
TCGA-AA-A017	COAD
TCGA-AA-A01D	COAD
TCGA-AA-A01F	COAD
TCGA-AA-A01G	COAD
TCGA-AA-A01I	COAD
TCGA-AA-A01K	COAD
TCGA-AA-A01P	COAD
TCGA-AA-A01Q	COAD
TCGA-AA-A01R	COAD
TCGA-AA-A01S	COAD
TCGA-AA-A01T	COAD
TCGA-AA-A01V	COAD
TCGA-AA-A01X	COAD
TCGA-AA-A01Z	COAD
TCGA-AA-A022	COAD
TCGA-AA-A024	COAD
TCGA-AA-A029	COAD
TCGA-AA-A02F	COAD
TCGA-AA-A02H	COAD
TCGA-AA-A02J	COAD
TCGA-AA-A02O	COAD
TCGA-AA-A02W	COAD
TCGA-AA-A02Y	COAD
TCGA-AA-A03F	COAD
TCGA-AA-A03J	COAD
TCGA-AB-2803	LAML
TCGA-AB-2805	LAML
TCGA-AB-2806	LAML
TCGA-AB-2807	LAML
TCGA-AB-2808	LAML
TCGA-AB-2810	LAML
TCGA-AB-2812	LAML
TCGA-AB-2813	LAML
TCGA-AB-2814	LAML
TCGA-AB-2816	LAML
TCGA-AB-2817	LAML
TCGA-AB-2818	LAML
TCGA-AB-2819	LAML
TCGA-AB-2820	LAML
TCGA-AB-2821	LAML
TCGA-AB-2822	LAML
TCGA-AB-2823	LAML
TCGA-AB-2824	LAML
TCGA-AB-2825	LAML
TCGA-AB-2826	LAML
TCGA-AB-2828	LAML
TCGA-AB-2830	LAML
TCGA-AB-2832	LAML
TCGA-AB-2833	LAML
TCGA-AB-2834	LAML
TCGA-AB-2835	LAML
TCGA-AB-2836	LAML
TCGA-AB-2837	LAML
TCGA-AB-2838	LAML
TCGA-AB-2839	LAML
TCGA-AB-2840	LAML
TCGA-AB-2842	LAML
TCGA-AB-2843	LAML
TCGA-AB-2844	LAML
TCGA-AB-2845	LAML
TCGA-AB-2846	LAML
TCGA-AB-2847	LAML
TCGA-AB-2848	LAML
TCGA-AB-2849	LAML
TCGA-AB-2851	LAML
TCGA-AB-2853	LAML
TCGA-AB-2854	LAML
TCGA-AB-2855	LAML
TCGA-AB-2857	LAML
TCGA-AB-2858	LAML
TCGA-AB-2859	LAML
TCGA-AB-2860	LAML
TCGA-AB-2861	LAML
TCGA-AB-2862	LAML
TCGA-AB-2863	LAML
TCGA-AB-2865	LAML
TCGA-AB-2866	LAML
TCGA-AB-2867	LAML
TCGA-AB-2868	LAML
TCGA-AB-2869	LAML
TCGA-AB-2870	LAML
TCGA-AB-2871	LAML
TCGA-AB-2872	LAML
TCGA-AB-2873	LAML
TCGA-AB-2874	LAML
TCGA-AB-2875	LAML
TCGA-AB-2877	LAML
TCGA-AB-2879	LAML
TCGA-AB-2880	LAML
TCGA-AB-2881	LAML
TCGA-AB-2882	LAML
TCGA-AB-2884	LAML
TCGA-AB-2885	LAML
TCGA-AB-2886	LAML
TCGA-AB-2887	LAML
TCGA-AB-2888	LAML
TCGA-AB-2889	LAML
TCGA-AB-2890	LAML
TCGA-AB-2891	LAML
TCGA-AB-2895	LAML
TCGA-AB-2896	LAML
TCGA-AB-2897	LAML
TCGA-AB-2898	LAML
TCGA-AB-2899	LAML
TCGA-AB-2900	LAML
TCGA-AB-2901	LAML
TCGA-AB-2903	LAML
TCGA-AB-2904	LAML
TCGA-AB-2908	LAML
TCGA-AB-2909	LAML
TCGA-AB-2910	LAML
TCGA-AB-2911	LAML
TCGA-AB-2912	LAML
TCGA-AB-2913	LAML
TCGA-AB-2914	LAML
TCGA-AB-2915	LAML
TCGA-AB-2916	LAML
TCGA-AB-2917	LAML
TCGA-AB-2918	LAML
TCGA-AB-2919	LAML
TCGA-AB-2921	LAML
TCGA-AB-2924	LAML
TCGA-AB-2925	LAML
TCGA-AB-2927	LAML
TCGA-AB-2928	LAML
TCGA-AB-2929	LAML
TCGA-AB-2930	LAML
TCGA-AB-2931	LAML
TCGA-AB-2932	LAML
TCGA-AB-2933	LAML
TCGA-AB-2934	LAML
TCGA-AB-2935	LAML
TCGA-AB-2936	LAML
TCGA-AB-2937	LAML
TCGA-AB-2938	LAML
TCGA-AB-2939	LAML
TCGA-AB-2940	LAML
TCGA-AB-2941	LAML
TCGA-AB-2942	LAML
TCGA-AB-2946	LAML
TCGA-AB-2948	LAML
TCGA-AB-2949	LAML
TCGA-AB-2950	LAML
TCGA-AB-2954	LAML
TCGA-AB-2955	LAML
TCGA-AB-2956	LAML
TCGA-AB-2959	LAML
TCGA-AB-2963	LAML
TCGA-AB-2964	LAML
TCGA-AB-2965	LAML
TCGA-AB-2966	LAML
TCGA-AB-2967	LAML
TCGA-AB-2969	LAML
TCGA-AB-2970	LAML
TCGA-AB-2971	LAML
TCGA-AB-2972	LAML
TCGA-AB-2973	LAML
TCGA-AB-2975	LAML
TCGA-AB-2976	LAML
TCGA-AB-2978	LAML
TCGA-AB-2980	LAML
TCGA-AB-2982	LAML
TCGA-AB-2983	LAML
TCGA-AB-2984	LAML
TCGA-AB-2985	LAML
TCGA-AB-2986	LAML
TCGA-AB-2987	LAML
TCGA-AB-2988	LAML
TCGA-AB-2990	LAML
TCGA-AB-2991	LAML
TCGA-AB-2992	LAML
TCGA-AB-2994	LAML
TCGA-AB-2995	LAML
TCGA-AB-2996	LAML
TCGA-AB-2998	LAML
TCGA-AB-2999	LAML
TCGA-AB-3000	LAML
TCGA-AB-3001	LAML
TCGA-AB-3002	LAML
TCGA-AB-3005	LAML
TCGA-AB-3006	LAML
TCGA-AB-3007	LAML
TCGA-AB-3008	LAML
TCGA-AB-3009	LAML
TCGA-AB-3011	LAML
TCGA-AB-3012	LAML
TCGA-AC-A23C	BRCA
TCGA-AC-A23E	BRCA
TCGA-AF-2691	READ
TCGA-AF-2692	READ
TCGA-AF-3400	READ
TCGA-AF-3913	READ
TCGA-AG-3574	READ
TCGA-AG-3575	READ
TCGA-AG-3578	READ
TCGA-AG-3580	READ
TCGA-AG-3581	READ
TCGA-AG-3582	READ
TCGA-AG-3583	READ
TCGA-AG-3584	READ
TCGA-AG-3586	READ
TCGA-AG-3587	READ
TCGA-AG-3593	READ
TCGA-AG-3594	READ
TCGA-AG-3598	READ
TCGA-AG-3599	READ
TCGA-AG-3600	READ
TCGA-AG-3601	READ
TCGA-AG-3602	READ
TCGA-AG-3605	READ
TCGA-AG-3608	READ
TCGA-AG-3609	READ
TCGA-AG-3611	READ
TCGA-AG-3612	READ
TCGA-AG-3726	READ
TCGA-AG-3727	READ
TCGA-AG-3878	READ
TCGA-AG-3881	READ
TCGA-AG-3882	READ
TCGA-AG-3883	READ
TCGA-AG-3887	READ
TCGA-AG-3890	READ
TCGA-AG-3892	READ
TCGA-AG-3893	READ
TCGA-AG-3894	READ
TCGA-AG-3896	READ
TCGA-AG-3898	READ
TCGA-AG-3901	READ
TCGA-AG-3902	READ
TCGA-AG-3909	READ
TCGA-AG-3999	READ
TCGA-AG-4001	READ
TCGA-AG-4005	READ
TCGA-AG-4007	READ
TCGA-AG-4008	READ
TCGA-AG-4015	READ
TCGA-AG-A002	READ
TCGA-AG-A008	READ
TCGA-AG-A00C	READ
TCGA-AG-A00H	READ
TCGA-AG-A00Y	READ
TCGA-AG-A011	READ
TCGA-AG-A014	READ
TCGA-AG-A015	READ
TCGA-AG-A016	READ
TCGA-AG-A01L	READ
TCGA-AG-A01W	READ
TCGA-AG-A01Y	READ
TCGA-AG-A020	READ
TCGA-AG-A025	READ
TCGA-AG-A026	READ
TCGA-AG-A02G	READ
TCGA-AG-A02N	READ
TCGA-AG-A02X	READ
TCGA-AG-A032	READ
TCGA-AG-A036	READ
TCGA-AJ-A23M	UCEC
TCGA-AK-3425	KIRC
TCGA-AK-3428	KIRC
TCGA-AK-3429	KIRC
TCGA-AK-3431	KIRC
TCGA-AK-3434	KIRC
TCGA-AK-3436	KIRC
TCGA-AK-3444	KIRC
TCGA-AK-3445	KIRC
TCGA-AK-3450	KIRC
TCGA-AK-3451	KIRC
TCGA-AK-3454	KIRC
TCGA-AK-3455	KIRC
TCGA-AK-3456	KIRC
TCGA-AK-3458	KIRC
TCGA-AK-3460	KIRC
TCGA-AK-3461	KIRC
TCGA-AL-3466	KIRP
TCGA-AL-3467	KIRP
TCGA-AL-3468	KIRP
TCGA-AL-3472	KIRP
TCGA-AL-3473	KIRP
TCGA-AL-7173	KIRP
TCGA-AN-A03X	BRCA
TCGA-AN-A03Y	BRCA
TCGA-AN-A041	BRCA
TCGA-AN-A049	BRCA
TCGA-AN-A04A	BRCA
TCGA-AN-A04C	BRCA
TCGA-AN-A04D	BRCA
TCGA-AN-A0AJ	BRCA
TCGA-AN-A0AL	BRCA
TCGA-AN-A0AM	BRCA
TCGA-AN-A0AR	BRCA
TCGA-AN-A0AS	BRCA
TCGA-AN-A0AT	BRCA
TCGA-AN-A0FD	BRCA
TCGA-AN-A0FF	BRCA
TCGA-AN-A0FJ	BRCA
TCGA-AN-A0FK	BRCA
TCGA-AN-A0FL	BRCA
TCGA-AN-A0FN	BRCA
TCGA-AN-A0FS	BRCA
TCGA-AN-A0FT	BRCA
TCGA-AN-A0FV	BRCA
TCGA-AN-A0FW	BRCA
TCGA-AN-A0FX	BRCA
TCGA-AN-A0FY	BRCA
TCGA-AN-A0FZ	BRCA
TCGA-AN-A0G0	BRCA
TCGA-AN-A0XL	BRCA
TCGA-AN-A0XN	BRCA
TCGA-AN-A0XO	BRCA
TCGA-AN-A0XP	BRCA
TCGA-AN-A0XR	BRCA
TCGA-AN-A0XS	BRCA
TCGA-AN-A0XT	BRCA
TCGA-AN-A0XU	BRCA
TCGA-AN-A0XV	BRCA
TCGA-AN-A0XW	BRCA
TCGA-AO-A03L	BRCA
TCGA-AO-A03N	BRCA
TCGA-AO-A03O	BRCA
TCGA-AO-A03P	BRCA
TCGA-AO-A03R	BRCA
TCGA-AO-A03T	BRCA
TCGA-AO-A03U	BRCA
TCGA-AO-A03V	BRCA
TCGA-AO-A0J2	BRCA
TCGA-AO-A0J3	BRCA
TCGA-AO-A0J4	BRCA
TCGA-AO-A0J5	BRCA
TCGA-AO-A0J6	BRCA
TCGA-AO-A0J7	BRCA
TCGA-AO-A0J8	BRCA
TCGA-AO-A0J9	BRCA
TCGA-AO-A0JA	BRCA
TCGA-AO-A0JB	BRCA
TCGA-AO-A0JC	BRCA
TCGA-AO-A0JD	BRCA
TCGA-AO-A0JE	BRCA
TCGA-AO-A0JF	BRCA
TCGA-AO-A0JG	BRCA
TCGA-AO-A0JI	BRCA
TCGA-AO-A0JJ	BRCA
TCGA-AO-A0JL	BRCA
TCGA-AO-A0JM	BRCA
TCGA-AO-A124	BRCA
TCGA-AO-A125	BRCA
TCGA-AO-A126	BRCA
TCGA-AO-A129	BRCA
TCGA-AO-A12A	BRCA
TCGA-AO-A12B	BRCA
TCGA-AO-A12D	BRCA
TCGA-AO-A12E	BRCA
TCGA-AO-A12F	BRCA
TCGA-AO-A12G	BRCA
TCGA-AO-A12H	BRCA
TCGA-AO-A1KO	BRCA
TCGA-AO-A1KP	BRCA
TCGA-AO-A1KR	BRCA
TCGA-AO-A1KS	BRCA
TCGA-AO-A1KT	BRCA
TCGA-AP-A051	UCEC
TCGA-AP-A052	UCEC
TCGA-AP-A053	UCEC
TCGA-AP-A054	UCEC
TCGA-AP-A056	UCEC
TCGA-AP-A059	UCEC
TCGA-AP-A05A	UCEC
TCGA-AP-A05D	UCEC
TCGA-AP-A05H	UCEC
TCGA-AP-A05J	UCEC
TCGA-AP-A05N	UCEC
TCGA-AP-A05P	UCEC
TCGA-AP-A0L8	UCEC
TCGA-AP-A0L9	UCEC
TCGA-AP-A0LD	UCEC
TCGA-AP-A0LE	UCEC
TCGA-AP-A0LF	UCEC
TCGA-AP-A0LG	UCEC
TCGA-AP-A0LH	UCEC
TCGA-AP-A0LI	UCEC
TCGA-AP-A0LJ	UCEC
TCGA-AP-A0LL	UCEC
TCGA-AP-A0LM	UCEC
TCGA-AP-A0LN	UCEC
TCGA-AP-A0LO	UCEC
TCGA-AP-A0LP	UCEC
TCGA-AP-A0LT	UCEC
TCGA-AP-A0LV	UCEC
TCGA-AP-A1DQ	UCEC
TCGA-AQ-A04H	BRCA
TCGA-AQ-A04J	BRCA
TCGA-AQ-A04L	BRCA
TCGA-AQ-A0Y5	BRCA
TCGA-AQ-A1H2	BRCA
TCGA-AQ-A1H3	BRCA
TCGA-AR-A0TP	BRCA
TCGA-AR-A0TQ	BRCA
TCGA-AR-A0TR	BRCA
TCGA-AR-A0TS	BRCA
TCGA-AR-A0TT	BRCA
TCGA-AR-A0TU	BRCA
TCGA-AR-A0TV	BRCA
TCGA-AR-A0TW	BRCA
TCGA-AR-A0TX	BRCA
TCGA-AR-A0TY	BRCA
TCGA-AR-A0TZ	BRCA
TCGA-AR-A0U0	BRCA
TCGA-AR-A0U2	BRCA
TCGA-AR-A0U3	BRCA
TCGA-AR-A0U4	BRCA
TCGA-AR-A1AH	BRCA
TCGA-AR-A1AI	BRCA
TCGA-AR-A1AJ	BRCA
TCGA-AR-A1AK	BRCA
TCGA-AR-A1AL	BRCA
TCGA-AR-A1AN	BRCA
TCGA-AR-A1AO	BRCA
TCGA-AR-A1AP	BRCA
TCGA-AR-A1AQ	BRCA
TCGA-AR-A1AR	BRCA
TCGA-AR-A1AS	BRCA
TCGA-AR-A1AT	BRCA
TCGA-AR-A1AU	BRCA
TCGA-AR-A1AV	BRCA
TCGA-AR-A1AW	BRCA
TCGA-AR-A1AX	BRCA
TCGA-AR-A1AY	BRCA
TCGA-AR-A24H	BRCA
TCGA-AR-A24K	BRCA
TCGA-AR-A24L	BRCA
TCGA-AR-A24M	BRCA
TCGA-AR-A24N	BRCA
TCGA-AR-A24O	BRCA
TCGA-AR-A24P	BRCA
TCGA-AR-A24Q	BRCA
TCGA-AR-A24R	BRCA
TCGA-AR-A24S	BRCA
TCGA-AR-A24T	BRCA
TCGA-AR-A24U	BRCA
TCGA-AR-A24V	BRCA
TCGA-AR-A24W	BRCA
TCGA-AR-A24X	BRCA
TCGA-AR-A24Z	BRCA
TCGA-AR-A250	BRCA
TCGA-AR-A251	BRCA
TCGA-AR-A252	BRCA
TCGA-AR-A254	BRCA
TCGA-AR-A255	BRCA
TCGA-AR-A256	BRCA
TCGA-AS-3778	KIRC
TCGA-AX-A05S	UCEC
TCGA-AX-A05T	UCEC
TCGA-AX-A05U	UCEC
TCGA-AX-A05Y	UCEC
TCGA-AX-A05Z	UCEC
TCGA-AX-A060	UCEC
TCGA-AX-A062	UCEC
TCGA-AX-A063	UCEC
TCGA-AX-A064	UCEC
TCGA-AX-A06B	UCEC
TCGA-AX-A06H	UCEC
TCGA-AX-A06L	UCEC
TCGA-AX-A0IS	UCEC
TCGA-AX-A0IU	UCEC
TCGA-AX-A0IW	UCEC
TCGA-AX-A0J0	UCEC
TCGA-AX-A0J1	UCEC
TCGA-AX-A1C7	UCEC
TCGA-AX-A1C8	UCEC
TCGA-AX-A1CP	UCEC
TCGA-AX-A2H5	UCEC
TCGA-AX-A2HF	UCEC
TCGA-AY-4070	COAD
TCGA-AY-4071	COAD
TCGA-B0-4690	KIRC
TCGA-B0-4691	KIRC
TCGA-B0-4693	KIRC
TCGA-B0-4694	KIRC
TCGA-B0-4697	KIRC
TCGA-B0-4700	KIRC
TCGA-B0-4703	KIRC
TCGA-B0-4706	KIRC
TCGA-B0-4707	KIRC
TCGA-B0-4710	KIRC
TCGA-B0-4712	KIRC
TCGA-B0-4713	KIRC
TCGA-B0-4714	KIRC
TCGA-B0-4718	KIRC
TCGA-B0-4810	KIRC
TCGA-B0-4811	KIRC
TCGA-B0-4813	KIRC
TCGA-B0-4814	KIRC
TCGA-B0-4815	KIRC
TCGA-B0-4816	KIRC
TCGA-B0-4817	KIRC
TCGA-B0-4818	KIRC
TCGA-B0-4819	KIRC
TCGA-B0-4822	KIRC
TCGA-B0-4823	KIRC
TCGA-B0-4824	KIRC
TCGA-B0-4827	KIRC
TCGA-B0-4828	KIRC
TCGA-B0-4833	KIRC
TCGA-B0-4836	KIRC
TCGA-B0-4837	KIRC
TCGA-B0-4838	KIRC
TCGA-B0-4839	KIRC
TCGA-B0-4841	KIRC
TCGA-B0-4842	KIRC
TCGA-B0-4843	KIRC
TCGA-B0-4844	KIRC
TCGA-B0-4845	KIRC
TCGA-B0-4846	KIRC
TCGA-B0-4847	KIRC
TCGA-B0-4848	KIRC
TCGA-B0-4849	KIRC
TCGA-B0-4852	KIRC
TCGA-B0-4945	KIRC
TCGA-B0-5075	KIRC
TCGA-B0-5077	KIRC
TCGA-B0-5080	KIRC
TCGA-B0-5081	KIRC
TCGA-B0-5085	KIRC
TCGA-B0-5088	KIRC
TCGA-B0-5092	KIRC
TCGA-B0-5094	KIRC
TCGA-B0-5095	KIRC
TCGA-B0-5096	KIRC
TCGA-B0-5097	KIRC
TCGA-B0-5099	KIRC
TCGA-B0-5100	KIRC
TCGA-B0-5102	KIRC
TCGA-B0-5104	KIRC
TCGA-B0-5106	KIRC
TCGA-B0-5107	KIRC
TCGA-B0-5108	KIRC
TCGA-B0-5109	KIRC
TCGA-B0-5110	KIRC
TCGA-B0-5113	KIRC
TCGA-B0-5115	KIRC
TCGA-B0-5116	KIRC
TCGA-B0-5119	KIRC
TCGA-B0-5120	KIRC
TCGA-B0-5121	KIRC
TCGA-B0-5399	KIRC
TCGA-B0-5400	KIRC
TCGA-B0-5402	KIRC
TCGA-B0-5691	KIRC
TCGA-B0-5692	KIRC
TCGA-B0-5693	KIRC
TCGA-B0-5694	KIRC
TCGA-B0-5695	KIRC
TCGA-B0-5696	KIRC
TCGA-B0-5697	KIRC
TCGA-B0-5698	KIRC
TCGA-B0-5699	KIRC
TCGA-B0-5701	KIRC
TCGA-B0-5702	KIRC
TCGA-B0-5703	KIRC
TCGA-B0-5705	KIRC
TCGA-B0-5706	KIRC
TCGA-B0-5707	KIRC
TCGA-B0-5709	KIRC
TCGA-B0-5710	KIRC
TCGA-B0-5711	KIRC
TCGA-B0-5713	KIRC
TCGA-B0-5812	KIRC
TCGA-B1-5398	KIRP
TCGA-B2-3924	KIRC
TCGA-B2-4098	KIRC
TCGA-B2-4099	KIRC
TCGA-B2-4101	KIRC
TCGA-B2-5633	KIRC
TCGA-B2-5635	KIRC
TCGA-B2-5641	KIRC
TCGA-B3-3925	KIRP
TCGA-B3-3926	KIRP
TCGA-B3-4103	KIRP
TCGA-B3-4104	KIRP
TCGA-B4-5377	KIRC
TCGA-B5-A0JN	UCEC
TCGA-B5-A0JS	UCEC
TCGA-B5-A0JT	UCEC
TCGA-B5-A0JV	UCEC
TCGA-B5-A0JY	UCEC
TCGA-B5-A0JZ	UCEC
TCGA-B5-A0K0	UCEC
TCGA-B5-A0K1	UCEC
TCGA-B5-A0K2	UCEC
TCGA-B5-A0K3	UCEC
TCGA-B5-A0K4	UCEC
TCGA-B5-A0K6	UCEC
TCGA-B5-A0K7	UCEC
TCGA-B5-A0K8	UCEC
TCGA-B5-A0K9	UCEC
TCGA-B5-A11E	UCEC
TCGA-B5-A11F	UCEC
TCGA-B5-A11G	UCEC
TCGA-B5-A11H	UCEC
TCGA-B5-A11I	UCEC
TCGA-B5-A11J	UCEC
TCGA-B5-A11M	UCEC
TCGA-B5-A11N	UCEC
TCGA-B5-A11O	UCEC
TCGA-B5-A11Q	UCEC
TCGA-B5-A11R	UCEC
TCGA-B5-A11S	UCEC
TCGA-B5-A11U	UCEC
TCGA-B5-A11V	UCEC
TCGA-B5-A11W	UCEC
TCGA-B5-A11X	UCEC
TCGA-B5-A11Y	UCEC
TCGA-B5-A11Z	UCEC
TCGA-B5-A121	UCEC
TCGA-B5-A1MU	UCEC
TCGA-B5-A1MY	UCEC
TCGA-B6-A0I2	BRCA
TCGA-B6-A0I5	BRCA
TCGA-B6-A0I6	BRCA
TCGA-B6-A0I8	BRCA
TCGA-B6-A0I9	BRCA
TCGA-B6-A0IA	BRCA
TCGA-B6-A0IB	BRCA
TCGA-B6-A0IC	BRCA
TCGA-B6-A0IE	BRCA
TCGA-B6-A0IG	BRCA
TCGA-B6-A0IH	BRCA
TCGA-B6-A0IJ	BRCA
TCGA-B6-A0IK	BRCA
TCGA-B6-A0IM	BRCA
TCGA-B6-A0IN	BRCA
TCGA-B6-A0IO	BRCA
TCGA-B6-A0IP	BRCA
TCGA-B6-A0IQ	BRCA
TCGA-B6-A0RE	BRCA
TCGA-B6-A0RG	BRCA
TCGA-B6-A0RH	BRCA
TCGA-B6-A0RI	BRCA
TCGA-B6-A0RL	BRCA
TCGA-B6-A0RM	BRCA
TCGA-B6-A0RN	BRCA
TCGA-B6-A0RO	BRCA
TCGA-B6-A0RP	BRCA
TCGA-B6-A0RQ	BRCA
TCGA-B6-A0RS	BRCA
TCGA-B6-A0RT	BRCA
TCGA-B6-A0RU	BRCA
TCGA-B6-A0RV	BRCA
TCGA-B6-A0WS	BRCA
TCGA-B6-A0WT	BRCA
TCGA-B6-A0WV	BRCA
TCGA-B6-A0WW	BRCA
TCGA-B6-A0WX	BRCA
TCGA-B6-A0WY	BRCA
TCGA-B6-A0WZ	BRCA
TCGA-B6-A0X0	BRCA
TCGA-B6-A0X1	BRCA
TCGA-B6-A0X4	BRCA
TCGA-B6-A0X5	BRCA
TCGA-B6-A0X7	BRCA
TCGA-B6-A1KC	BRCA
TCGA-B6-A1KF	BRCA
TCGA-B6-A1KI	BRCA
TCGA-B6-A1KN	BRCA
TCGA-B7-5816	STAD
TCGA-B7-5818	STAD
TCGA-B8-4143	KIRC
TCGA-B8-4146	KIRC
TCGA-B8-4148	KIRC
TCGA-B8-4151	KIRC
TCGA-B8-4153	KIRC
TCGA-B8-4154	KIRC
TCGA-B8-4620	KIRC
TCGA-B8-4621	KIRC
TCGA-B8-4622	KIRC
TCGA-B8-5158	KIRC
TCGA-B8-5159	KIRC
TCGA-B8-5163	KIRC
TCGA-B8-5164	KIRC
TCGA-B8-5165	KIRC
TCGA-B8-5545	KIRC
TCGA-B8-5546	KIRC
TCGA-B8-5549	KIRC
TCGA-B8-5550	KIRC
TCGA-B8-5551	KIRC
TCGA-B8-5552	KIRC
TCGA-B8-5553	KIRC
TCGA-B9-4113	KIRP
TCGA-B9-4114	KIRP
TCGA-B9-4115	KIRP
TCGA-B9-4116	KIRP
TCGA-B9-4117	KIRP
TCGA-B9-4617	KIRP
TCGA-B9-5155	KIRP
TCGA-B9-5156	KIRP
TCGA-B9-7268	KIRP
TCGA-BA-4074	HNSC
TCGA-BA-4075	HNSC
TCGA-BA-4076	HNSC
TCGA-BA-4077	HNSC
TCGA-BA-4078	HNSC
TCGA-BA-5151	HNSC
TCGA-BA-5152	HNSC
TCGA-BA-5153	HNSC
TCGA-BA-5555	HNSC
TCGA-BA-5556	HNSC
TCGA-BA-5557	HNSC
TCGA-BA-5558	HNSC
TCGA-BA-5559	HNSC
TCGA-BA-6868	HNSC
TCGA-BA-6869	HNSC
TCGA-BA-6870	HNSC
TCGA-BA-6871	HNSC
TCGA-BA-6872	HNSC
TCGA-BA-6873	HNSC
TCGA-BA-7269	HNSC
TCGA-BB-4217	HNSC
TCGA-BB-4223	HNSC
TCGA-BB-4224	HNSC
TCGA-BB-4225	HNSC
TCGA-BB-4228	HNSC
TCGA-BF-A1PU	SKCM
TCGA-BF-A1PV	SKCM
TCGA-BF-A1PX	SKCM
TCGA-BF-A1PZ	SKCM
TCGA-BF-A1Q0	SKCM
TCGA-BF-A3DJ	SKCM
TCGA-BF-A3DL	SKCM
TCGA-BF-A3DM	SKCM
TCGA-BF-A3DN	SKCM
TCGA-BG-A0LW	UCEC
TCGA-BG-A0LX	UCEC
TCGA-BG-A0M0	UCEC
TCGA-BG-A0M2	UCEC
TCGA-BG-A0M3	UCEC
TCGA-BG-A0M4	UCEC
TCGA-BG-A0M6	UCEC
TCGA-BG-A0M7	UCEC
TCGA-BG-A0M8	UCEC
TCGA-BG-A0M9	UCEC
TCGA-BG-A0MC	UCEC
TCGA-BG-A0MG	UCEC
TCGA-BG-A0MI	UCEC
TCGA-BG-A0MO	UCEC
TCGA-BG-A0MQ	UCEC
TCGA-BG-A0MS	UCEC
TCGA-BG-A0MT	UCEC
TCGA-BG-A0MU	UCEC
TCGA-BG-A0RY	UCEC
TCGA-BG-A0VT	UCEC
TCGA-BG-A0VV	UCEC
TCGA-BG-A0VW	UCEC
TCGA-BG-A0VX	UCEC
TCGA-BG-A0VZ	UCEC
TCGA-BG-A0W1	UCEC
TCGA-BG-A0W2	UCEC
TCGA-BG-A0YU	UCEC
TCGA-BG-A0YV	UCEC
TCGA-BG-A186	UCEC
TCGA-BG-A187	UCEC
TCGA-BG-A18A	UCEC
TCGA-BG-A18B	UCEC
TCGA-BG-A18C	UCEC
TCGA-BG-A2AE	UCEC
TCGA-BH-A0AU	BRCA
TCGA-BH-A0AV	BRCA
TCGA-BH-A0AW	BRCA
TCGA-BH-A0AY	BRCA
TCGA-BH-A0AZ	BRCA
TCGA-BH-A0B0	BRCA
TCGA-BH-A0B1	BRCA
TCGA-BH-A0B3	BRCA
TCGA-BH-A0B4	BRCA
TCGA-BH-A0B5	BRCA
TCGA-BH-A0B7	BRCA
TCGA-BH-A0B8	BRCA
TCGA-BH-A0B9	BRCA
TCGA-BH-A0BA	BRCA
TCGA-BH-A0BC	BRCA
TCGA-BH-A0BD	BRCA
TCGA-BH-A0BF	BRCA
TCGA-BH-A0BG	BRCA
TCGA-BH-A0BJ	BRCA
TCGA-BH-A0BL	BRCA
TCGA-BH-A0BM	BRCA
TCGA-BH-A0BO	BRCA
TCGA-BH-A0BP	BRCA
TCGA-BH-A0BQ	BRCA
TCGA-BH-A0BR	BRCA
TCGA-BH-A0BS	BRCA
TCGA-BH-A0BT	BRCA
TCGA-BH-A0BV	BRCA
TCGA-BH-A0BW	BRCA
TCGA-BH-A0BZ	BRCA
TCGA-BH-A0C0	BRCA
TCGA-BH-A0C1	BRCA
TCGA-BH-A0C3	BRCA
TCGA-BH-A0C7	BRCA
TCGA-BH-A0DD	BRCA
TCGA-BH-A0DE	BRCA
TCGA-BH-A0DG	BRCA
TCGA-BH-A0DH	BRCA
TCGA-BH-A0DI	BRCA
TCGA-BH-A0DK	BRCA
TCGA-BH-A0DL	BRCA
TCGA-BH-A0DO	BRCA
TCGA-BH-A0DP	BRCA
TCGA-BH-A0DQ	BRCA
TCGA-BH-A0DS	BRCA
TCGA-BH-A0DT	BRCA
TCGA-BH-A0DV	BRCA
TCGA-BH-A0DX	BRCA
TCGA-BH-A0DZ	BRCA
TCGA-BH-A0E0	BRCA
TCGA-BH-A0E1	BRCA
TCGA-BH-A0E2	BRCA
TCGA-BH-A0E6	BRCA
TCGA-BH-A0E7	BRCA
TCGA-BH-A0E9	BRCA
TCGA-BH-A0EA	BRCA
TCGA-BH-A0EB	BRCA
TCGA-BH-A0EE	BRCA
TCGA-BH-A0EI	BRCA
TCGA-BH-A0GY	BRCA
TCGA-BH-A0GZ	BRCA
TCGA-BH-A0H0	BRCA
TCGA-BH-A0H3	BRCA
TCGA-BH-A0H5	BRCA
TCGA-BH-A0H6	BRCA
TCGA-BH-A0H7	BRCA
TCGA-BH-A0H9	BRCA
TCGA-BH-A0HA	BRCA
TCGA-BH-A0HB	BRCA
TCGA-BH-A0HI	BRCA
TCGA-BH-A0HK	BRCA
TCGA-BH-A0HL	BRCA
TCGA-BH-A0HN	BRCA
TCGA-BH-A0HO	BRCA
TCGA-BH-A0HP	BRCA
TCGA-BH-A0HQ	BRCA
TCGA-BH-A0HU	BRCA
TCGA-BH-A0HW	BRCA
TCGA-BH-A0HX	BRCA
TCGA-BH-A0HY	BRCA
TCGA-BH-A0RX	BRCA
TCGA-BH-A0W3	BRCA
TCGA-BH-A0W4	BRCA
TCGA-BH-A0W5	BRCA
TCGA-BH-A0W7	BRCA
TCGA-BH-A0WA	BRCA
TCGA-BH-A18F	BRCA
TCGA-BH-A18H	BRCA
TCGA-BH-A18I	BRCA
TCGA-BH-A18J	BRCA
TCGA-BH-A18K	BRCA
TCGA-BH-A18L	BRCA
TCGA-BH-A18M	BRCA
TCGA-BH-A18N	BRCA
TCGA-BH-A18P	BRCA
TCGA-BH-A18Q	BRCA
TCGA-BH-A18R	BRCA
TCGA-BH-A18S	BRCA
TCGA-BH-A18T	BRCA
TCGA-BH-A18U	BRCA
TCGA-BH-A18V	BRCA
TCGA-BH-A1EN	BRCA
TCGA-BH-A1EO	BRCA
TCGA-BH-A1ES	BRCA
TCGA-BH-A1ET	BRCA
TCGA-BH-A1EU	BRCA
TCGA-BH-A1EV	BRCA
TCGA-BH-A1EW	BRCA
TCGA-BH-A1EX	BRCA
TCGA-BH-A1EY	BRCA
TCGA-BH-A1F0	BRCA
TCGA-BH-A1F2	BRCA
TCGA-BH-A1F5	BRCA
TCGA-BH-A1F6	BRCA
TCGA-BH-A1F8	BRCA
TCGA-BH-A1FC	BRCA
TCGA-BH-A1FD	BRCA
TCGA-BH-A1FE	BRCA
TCGA-BH-A1FG	BRCA
TCGA-BH-A1FH	BRCA
TCGA-BH-A1FJ	BRCA
TCGA-BH-A1FL	BRCA
TCGA-BH-A1FM	BRCA
TCGA-BH-A1FN	BRCA
TCGA-BH-A1FR	BRCA
TCGA-BH-A1FU	BRCA
TCGA-BH-A201	BRCA
TCGA-BH-A202	BRCA
TCGA-BH-A203	BRCA
TCGA-BH-A204	BRCA
TCGA-BH-A208	BRCA
TCGA-BH-A209	BRCA
TCGA-BH-A28Q	BRCA
TCGA-BJ-A0YZ	THCA
TCGA-BJ-A0Z0	THCA
TCGA-BJ-A0Z2	THCA
TCGA-BJ-A0Z3	THCA
TCGA-BJ-A0Z5	THCA
TCGA-BJ-A0Z9	THCA
TCGA-BJ-A0ZA	THCA
TCGA-BJ-A0ZB	THCA
TCGA-BJ-A0ZC	THCA
TCGA-BJ-A0ZE	THCA
TCGA-BJ-A0ZF	THCA
TCGA-BJ-A0ZG	THCA
TCGA-BJ-A0ZH	THCA
TCGA-BJ-A0ZJ	THCA
TCGA-BJ-A18Y	THCA
TCGA-BJ-A18Z	THCA
TCGA-BJ-A190	THCA
TCGA-BJ-A191	THCA
TCGA-BJ-A192	THCA
TCGA-BJ-A28R	THCA
TCGA-BJ-A28S	THCA
TCGA-BJ-A28T	THCA
TCGA-BJ-A28V	THCA
TCGA-BJ-A28X	THCA
TCGA-BJ-A28Z	THCA
TCGA-BJ-A290	THCA
TCGA-BJ-A2N7	THCA
TCGA-BJ-A2N8	THCA
TCGA-BJ-A2N9	THCA
TCGA-BJ-A2NA	THCA
TCGA-BJ-A2P4	THCA
TCGA-BJ-A3EZ	THCA
TCGA-BJ-A3F0	THCA
TCGA-BJ-A3PR	THCA
TCGA-BJ-A3PT	THCA
TCGA-BJ-A3PU	THCA
TCGA-BK-A0C9	UCEC
TCGA-BK-A0CA	UCEC
TCGA-BK-A0CB	UCEC
TCGA-BK-A0CC	UCEC
TCGA-BK-A139	UCEC
TCGA-BK-A13C	UCEC
TCGA-BL-A0C8	BLCA
TCGA-BL-A13I	BLCA
TCGA-BL-A13J	BLCA
TCGA-BL-A3JM	BLCA
TCGA-BP-4158	KIRC
TCGA-BP-4159	KIRC
TCGA-BP-4160	KIRC
TCGA-BP-4161	KIRC
TCGA-BP-4162	KIRC
TCGA-BP-4163	KIRC
TCGA-BP-4164	KIRC
TCGA-BP-4165	KIRC
TCGA-BP-4166	KIRC
TCGA-BP-4167	KIRC
TCGA-BP-4169	KIRC
TCGA-BP-4170	KIRC
TCGA-BP-4173	KIRC
TCGA-BP-4174	KIRC
TCGA-BP-4176	KIRC
TCGA-BP-4326	KIRC
TCGA-BP-4329	KIRC
TCGA-BP-4330	KIRC
TCGA-BP-4331	KIRC
TCGA-BP-4337	KIRC
TCGA-BP-4338	KIRC
TCGA-BP-4340	KIRC
TCGA-BP-4341	KIRC
TCGA-BP-4342	KIRC
TCGA-BP-4343	KIRC
TCGA-BP-4345	KIRC
TCGA-BP-4346	KIRC
TCGA-BP-4347	KIRC
TCGA-BP-4349	KIRC
TCGA-BP-4351	KIRC
TCGA-BP-4352	KIRC
TCGA-BP-4354	KIRC
TCGA-BP-4355	KIRC
TCGA-BP-4756	KIRC
TCGA-BP-4758	KIRC
TCGA-BP-4759	KIRC
TCGA-BP-4761	KIRC
TCGA-BP-4762	KIRC
TCGA-BP-4763	KIRC
TCGA-BP-4765	KIRC
TCGA-BP-4766	KIRC
TCGA-BP-4768	KIRC
TCGA-BP-4770	KIRC
TCGA-BP-4771	KIRC
TCGA-BP-4774	KIRC
TCGA-BP-4775	KIRC
TCGA-BP-4777	KIRC
TCGA-BP-4781	KIRC
TCGA-BP-4782	KIRC
TCGA-BP-4787	KIRC
TCGA-BP-4789	KIRC
TCGA-BP-4790	KIRC
TCGA-BP-4797	KIRC
TCGA-BP-4798	KIRC
TCGA-BP-4799	KIRC
TCGA-BP-4801	KIRC
TCGA-BP-4803	KIRC
TCGA-BP-4804	KIRC
TCGA-BP-4807	KIRC
TCGA-BP-4960	KIRC
TCGA-BP-4961	KIRC
TCGA-BP-4962	KIRC
TCGA-BP-4963	KIRC
TCGA-BP-4964	KIRC
TCGA-BP-4967	KIRC
TCGA-BP-4968	KIRC
TCGA-BP-4970	KIRC
TCGA-BP-4971	KIRC
TCGA-BP-4972	KIRC
TCGA-BP-4973	KIRC
TCGA-BP-4974	KIRC
TCGA-BP-4975	KIRC
TCGA-BP-4976	KIRC
TCGA-BP-4977	KIRC
TCGA-BP-4981	KIRC
TCGA-BP-4982	KIRC
TCGA-BP-4983	KIRC
TCGA-BP-4985	KIRC
TCGA-BP-4986	KIRC
TCGA-BP-4987	KIRC
TCGA-BP-4988	KIRC
TCGA-BP-4989	KIRC
TCGA-BP-4991	KIRC
TCGA-BP-4992	KIRC
TCGA-BP-4993	KIRC
TCGA-BP-4995	KIRC
TCGA-BP-4998	KIRC
TCGA-BP-4999	KIRC
TCGA-BP-5000	KIRC
TCGA-BP-5001	KIRC
TCGA-BP-5004	KIRC
TCGA-BP-5006	KIRC
TCGA-BP-5007	KIRC
TCGA-BP-5008	KIRC
TCGA-BP-5009	KIRC
TCGA-BP-5010	KIRC
TCGA-BP-5168	KIRC
TCGA-BP-5169	KIRC
TCGA-BP-5170	KIRC
TCGA-BP-5173	KIRC
TCGA-BP-5174	KIRC
TCGA-BP-5175	KIRC
TCGA-BP-5176	KIRC
TCGA-BP-5177	KIRC
TCGA-BP-5178	KIRC
TCGA-BP-5180	KIRC
TCGA-BP-5182	KIRC
TCGA-BP-5183	KIRC
TCGA-BP-5184	KIRC
TCGA-BP-5185	KIRC
TCGA-BP-5186	KIRC
TCGA-BP-5187	KIRC
TCGA-BP-5189	KIRC
TCGA-BP-5190	KIRC
TCGA-BP-5191	KIRC
TCGA-BP-5192	KIRC
TCGA-BP-5194	KIRC
TCGA-BP-5195	KIRC
TCGA-BP-5196	KIRC
TCGA-BP-5198	KIRC
TCGA-BP-5199	KIRC
TCGA-BP-5200	KIRC
TCGA-BP-5201	KIRC
TCGA-BP-5202	KIRC
TCGA-BQ-5875	KIRP
TCGA-BQ-5876	KIRP
TCGA-BQ-5877	KIRP
TCGA-BQ-5878	KIRP
TCGA-BQ-5879	KIRP
TCGA-BQ-5880	KIRP
TCGA-BQ-5881	KIRP
TCGA-BQ-5882	KIRP
TCGA-BQ-5883	KIRP
TCGA-BQ-5884	KIRP
TCGA-BQ-5885	KIRP
TCGA-BQ-5886	KIRP
TCGA-BQ-5887	KIRP
TCGA-BQ-5888	KIRP
TCGA-BQ-5889	KIRP
TCGA-BQ-5890	KIRP
TCGA-BQ-5891	KIRP
TCGA-BQ-5892	KIRP
TCGA-BQ-5893	KIRP
TCGA-BQ-5894	KIRP
TCGA-BQ-7044	KIRP
TCGA-BQ-7045	KIRP
TCGA-BQ-7046	KIRP
TCGA-BQ-7048	KIRP
TCGA-BQ-7049	KIRP
TCGA-BQ-7050	KIRP
TCGA-BQ-7051	KIRP
TCGA-BQ-7053	KIRP
TCGA-BQ-7055	KIRP
TCGA-BQ-7056	KIRP
TCGA-BQ-7058	KIRP
TCGA-BQ-7059	KIRP
TCGA-BQ-7060	KIRP
TCGA-BQ-7061	KIRP
TCGA-BQ-7062	KIRP
TCGA-BR-4191	STAD
TCGA-BR-4201	STAD
TCGA-BR-4253	STAD
TCGA-BR-4255	STAD
TCGA-BR-4279	STAD
TCGA-BR-4294	STAD
TCGA-BR-4357	STAD
TCGA-BR-4361	STAD
TCGA-BR-4362	STAD
TCGA-BR-4363	STAD
TCGA-BR-4366	STAD
TCGA-BR-4367	STAD
TCGA-BR-4368	STAD
TCGA-BR-4369	STAD
TCGA-BR-4370	STAD
TCGA-BR-4371	STAD
TCGA-BR-6707	STAD
TCGA-BR-6709	STAD
TCGA-BR-6710	STAD
TCGA-BR-6801	STAD
TCGA-BS-A0T9	UCEC
TCGA-BS-A0TA	UCEC
TCGA-BS-A0TC	UCEC
TCGA-BS-A0TD	UCEC
TCGA-BS-A0TE	UCEC
TCGA-BS-A0TG	UCEC
TCGA-BS-A0TI	UCEC
TCGA-BS-A0TJ	UCEC
TCGA-BS-A0U5	UCEC
TCGA-BS-A0U7	UCEC
TCGA-BS-A0U8	UCEC
TCGA-BS-A0U9	UCEC
TCGA-BS-A0UA	UCEC
TCGA-BS-A0UF	UCEC
TCGA-BS-A0UJ	UCEC
TCGA-BS-A0UL	UCEC
TCGA-BS-A0UM	UCEC
TCGA-BS-A0UT	UCEC
TCGA-BS-A0UV	UCEC
TCGA-BS-A0V6	UCEC
TCGA-BS-A0V7	UCEC
TCGA-BS-A0V8	UCEC
TCGA-BS-A0WQ	UCEC
TCGA-BT-A0S7	BLCA
TCGA-BT-A0YX	BLCA
TCGA-BT-A20J	BLCA
TCGA-BT-A20N	BLCA
TCGA-BT-A20O	BLCA
TCGA-BT-A20P	BLCA
TCGA-BT-A20Q	BLCA
TCGA-BT-A20R	BLCA
TCGA-BT-A20T	BLCA
TCGA-BT-A20U	BLCA
TCGA-BT-A20V	BLCA
TCGA-BT-A20W	BLCA
TCGA-BT-A20X	BLCA
TCGA-BT-A2LA	BLCA
TCGA-BT-A2LB	BLCA
TCGA-BT-A2LD	BLCA
TCGA-BT-A3PH	BLCA
TCGA-BT-A3PJ	BLCA
TCGA-BT-A3PK	BLCA
TCGA-C4-A0EZ	BLCA
TCGA-C4-A0F0	BLCA
TCGA-C4-A0F1	BLCA
TCGA-C4-A0F6	BLCA
TCGA-C4-A0F7	BLCA
TCGA-C8-A12K	BRCA
TCGA-C8-A12L	BRCA
TCGA-C8-A12M	BRCA
TCGA-C8-A12N	BRCA
TCGA-C8-A12O	BRCA
TCGA-C8-A12P	BRCA
TCGA-C8-A12Q	BRCA
TCGA-C8-A12T	BRCA
TCGA-C8-A12U	BRCA
TCGA-C8-A12V	BRCA
TCGA-C8-A12W	BRCA
TCGA-C8-A12X	BRCA
TCGA-C8-A12Y	BRCA
TCGA-C8-A12Z	BRCA
TCGA-C8-A130	BRCA
TCGA-C8-A131	BRCA
TCGA-C8-A132	BRCA
TCGA-C8-A133	BRCA
TCGA-C8-A134	BRCA
TCGA-C8-A135	BRCA
TCGA-C8-A137	BRCA
TCGA-C8-A138	BRCA
TCGA-C8-A1HE	BRCA
TCGA-C8-A1HF	BRCA
TCGA-C8-A1HG	BRCA
TCGA-C8-A1HI	BRCA
TCGA-C8-A1HJ	BRCA
TCGA-C8-A1HK	BRCA
TCGA-C8-A1HL	BRCA
TCGA-C8-A1HM	BRCA
TCGA-C8-A1HN	BRCA
TCGA-C8-A1HO	BRCA
TCGA-C8-A26V	BRCA
TCGA-C8-A26W	BRCA
TCGA-C8-A26X	BRCA
TCGA-C8-A26Z	BRCA
TCGA-C8-A273	BRCA
TCGA-C8-A274	BRCA
TCGA-C8-A275	BRCA
TCGA-C8-A278	BRCA
TCGA-C8-A27A	BRCA
TCGA-C8-A27B	BRCA
TCGA-CD-5798	STAD
TCGA-CD-5799	STAD
TCGA-CD-5800	STAD
TCGA-CD-5801	STAD
TCGA-CD-5803	STAD
TCGA-CD-5813	STAD
TCGA-CE-A13K	THCA
TCGA-CE-A27D	THCA
TCGA-CE-A3MD	THCA
TCGA-CE-A3ME	THCA
TCGA-CF-A1HR	BLCA
TCGA-CF-A1HS	BLCA
TCGA-CF-A27C	BLCA
TCGA-CF-A3MF	BLCA
TCGA-CF-A3MG	BLCA
TCGA-CF-A3MH	BLCA
TCGA-CF-A3MI	BLCA
TCGA-CG-4301	STAD
TCGA-CG-4304	STAD
TCGA-CG-4305	STAD
TCGA-CG-4306	STAD
TCGA-CG-4436	STAD
TCGA-CG-4438	STAD
TCGA-CG-4440	STAD
TCGA-CG-4442	STAD
TCGA-CG-4443	STAD
TCGA-CG-4444	STAD
TCGA-CG-4449	STAD
TCGA-CG-4460	STAD
TCGA-CG-4462	STAD
TCGA-CG-4465	STAD
TCGA-CG-4466	STAD
TCGA-CG-4469	STAD
TCGA-CG-4472	STAD
TCGA-CG-4474	STAD
TCGA-CG-4475	STAD
TCGA-CG-4476	STAD
TCGA-CG-4477	STAD
TCGA-CG-5717	STAD
TCGA-CG-5718	STAD
TCGA-CG-5719	STAD
TCGA-CG-5720	STAD
TCGA-CG-5721	STAD
TCGA-CG-5722	STAD
TCGA-CG-5723	STAD
TCGA-CG-5724	STAD
TCGA-CG-5725	STAD
TCGA-CG-5726	STAD
TCGA-CG-5732	STAD
TCGA-CG-5734	STAD
TCGA-CH-5737	PRAD
TCGA-CH-5738	PRAD
TCGA-CH-5739	PRAD
TCGA-CH-5740	PRAD
TCGA-CH-5741	PRAD
TCGA-CH-5743	PRAD
TCGA-CH-5744	PRAD
TCGA-CH-5745	PRAD
TCGA-CH-5746	PRAD
TCGA-CH-5748	PRAD
TCGA-CH-5750	PRAD
TCGA-CH-5751	PRAD
TCGA-CH-5752	PRAD
TCGA-CH-5753	PRAD
TCGA-CH-5754	PRAD
TCGA-CH-5761	PRAD
TCGA-CH-5762	PRAD
TCGA-CH-5763	PRAD
TCGA-CH-5764	PRAD
TCGA-CH-5765	PRAD
TCGA-CH-5766	PRAD
TCGA-CH-5767	PRAD
TCGA-CH-5768	PRAD
TCGA-CH-5769	PRAD
TCGA-CH-5771	PRAD
TCGA-CH-5772	PRAD
TCGA-CH-5788	PRAD
TCGA-CH-5789	PRAD
TCGA-CH-5790	PRAD
TCGA-CH-5791	PRAD
TCGA-CH-5792	PRAD
TCGA-CH-5794	PRAD
TCGA-CJ-4634	KIRC
TCGA-CJ-4635	KIRC
TCGA-CJ-4636	KIRC
TCGA-CJ-4637	KIRC
TCGA-CJ-4638	KIRC
TCGA-CJ-4639	KIRC
TCGA-CJ-4640	KIRC
TCGA-CJ-4641	KIRC
TCGA-CJ-4643	KIRC
TCGA-CJ-4644	KIRC
TCGA-CJ-4868	KIRC
TCGA-CJ-4870	KIRC
TCGA-CJ-4871	KIRC
TCGA-CJ-4872	KIRC
TCGA-CJ-4873	KIRC
TCGA-CJ-4874	KIRC
TCGA-CJ-4875	KIRC
TCGA-CJ-4876	KIRC
TCGA-CJ-4878	KIRC
TCGA-CJ-4881	KIRC
TCGA-CJ-4882	KIRC
TCGA-CJ-4884	KIRC
TCGA-CJ-4885	KIRC
TCGA-CJ-4886	KIRC
TCGA-CJ-4887	KIRC
TCGA-CJ-4888	KIRC
TCGA-CJ-4889	KIRC
TCGA-CJ-4890	KIRC
TCGA-CJ-4891	KIRC
TCGA-CJ-4892	KIRC
TCGA-CJ-4893	KIRC
TCGA-CJ-4894	KIRC
TCGA-CJ-4895	KIRC
TCGA-CJ-4897	KIRC
TCGA-CJ-4899	KIRC
TCGA-CJ-4901	KIRC
TCGA-CJ-4902	KIRC
TCGA-CJ-4903	KIRC
TCGA-CJ-4904	KIRC
TCGA-CJ-4905	KIRC
TCGA-CJ-4907	KIRC
TCGA-CJ-4908	KIRC
TCGA-CJ-4912	KIRC
TCGA-CJ-4916	KIRC
TCGA-CJ-4918	KIRC
TCGA-CJ-4920	KIRC
TCGA-CJ-4923	KIRC
TCGA-CJ-5671	KIRC
TCGA-CJ-5672	KIRC
TCGA-CJ-5675	KIRC
TCGA-CJ-5676	KIRC
TCGA-CJ-5677	KIRC
TCGA-CJ-5678	KIRC
TCGA-CJ-5679	KIRC
TCGA-CJ-5680	KIRC
TCGA-CJ-5681	KIRC
TCGA-CJ-5682	KIRC
TCGA-CJ-5683	KIRC
TCGA-CJ-5684	KIRC
TCGA-CJ-5686	KIRC
TCGA-CJ-6027	KIRC
TCGA-CJ-6028	KIRC
TCGA-CJ-6030	KIRC
TCGA-CJ-6031	KIRC
TCGA-CJ-6032	KIRC
TCGA-CJ-6033	KIRC
TCGA-CN-4723	HNSC
TCGA-CN-4725	HNSC
TCGA-CN-4726	HNSC
TCGA-CN-4727	HNSC
TCGA-CN-4728	HNSC
TCGA-CN-4729	HNSC
TCGA-CN-4730	HNSC
TCGA-CN-4731	HNSC
TCGA-CN-4733	HNSC
TCGA-CN-4734	HNSC
TCGA-CN-4735	HNSC
TCGA-CN-4736	HNSC
TCGA-CN-4737	HNSC
TCGA-CN-4738	HNSC
TCGA-CN-4739	HNSC
TCGA-CN-4740	HNSC
TCGA-CN-4741	HNSC
TCGA-CN-4742	HNSC
TCGA-CN-5355	HNSC
TCGA-CN-5356	HNSC
TCGA-CN-5358	HNSC
TCGA-CN-5359	HNSC
TCGA-CN-5360	HNSC
TCGA-CN-5361	HNSC
TCGA-CN-5363	HNSC
TCGA-CN-5364	HNSC
TCGA-CN-5365	HNSC
TCGA-CN-5366	HNSC
TCGA-CN-5367	HNSC
TCGA-CN-5369	HNSC
TCGA-CN-5370	HNSC
TCGA-CN-5373	HNSC
TCGA-CN-5374	HNSC
TCGA-CN-6010	HNSC
TCGA-CN-6011	HNSC
TCGA-CN-6012	HNSC
TCGA-CN-6013	HNSC
TCGA-CN-6016	HNSC
TCGA-CN-6017	HNSC
TCGA-CN-6018	HNSC
TCGA-CN-6019	HNSC
TCGA-CN-6020	HNSC
TCGA-CN-6021	HNSC
TCGA-CN-6022	HNSC
TCGA-CN-6023	HNSC
TCGA-CN-6024	HNSC
TCGA-CN-6988	HNSC
TCGA-CN-6989	HNSC
TCGA-CN-6992	HNSC
TCGA-CN-6994	HNSC
TCGA-CN-6995	HNSC
TCGA-CN-6996	HNSC
TCGA-CN-6997	HNSC
TCGA-CN-6998	HNSC
TCGA-CQ-5323	HNSC
TCGA-CQ-5324	HNSC
TCGA-CQ-5325	HNSC
TCGA-CQ-5326	HNSC
TCGA-CQ-5327	HNSC
TCGA-CQ-5329	HNSC
TCGA-CQ-5330	HNSC
TCGA-CQ-5331	HNSC
TCGA-CQ-5332	HNSC
TCGA-CQ-5334	HNSC
TCGA-CQ-6218	HNSC
TCGA-CQ-6219	HNSC
TCGA-CQ-6220	HNSC
TCGA-CQ-6221	HNSC
TCGA-CQ-6222	HNSC
TCGA-CQ-6223	HNSC
TCGA-CQ-6224	HNSC
TCGA-CQ-6225	HNSC
TCGA-CQ-6227	HNSC
TCGA-CQ-6228	HNSC
TCGA-CQ-6229	HNSC
TCGA-CQ-7065	HNSC
TCGA-CQ-7068	HNSC
TCGA-CR-5243	HNSC
TCGA-CR-5247	HNSC
TCGA-CR-5248	HNSC
TCGA-CR-5249	HNSC
TCGA-CR-5250	HNSC
TCGA-CR-6467	HNSC
TCGA-CR-6470	HNSC
TCGA-CR-6471	HNSC
TCGA-CR-6472	HNSC
TCGA-CR-6473	HNSC
TCGA-CR-6474	HNSC
TCGA-CR-6477	HNSC
TCGA-CR-6478	HNSC
TCGA-CR-6480	HNSC
TCGA-CR-6481	HNSC
TCGA-CR-6482	HNSC
TCGA-CR-6484	HNSC
TCGA-CR-6487	HNSC
TCGA-CR-6488	HNSC
TCGA-CR-6491	HNSC
TCGA-CR-6492	HNSC
TCGA-CR-6493	HNSC
TCGA-CR-7364	HNSC
TCGA-CR-7365	HNSC
TCGA-CR-7367	HNSC
TCGA-CR-7368	HNSC
TCGA-CR-7369	HNSC
TCGA-CR-7370	HNSC
TCGA-CR-7371	HNSC
TCGA-CR-7372	HNSC
TCGA-CR-7373	HNSC
TCGA-CR-7374	HNSC
TCGA-CR-7376	HNSC
TCGA-CR-7377	HNSC
TCGA-CR-7379	HNSC
TCGA-CR-7380	HNSC
TCGA-CR-7382	HNSC
TCGA-CR-7383	HNSC
TCGA-CR-7385	HNSC
TCGA-CR-7386	HNSC
TCGA-CR-7388	HNSC
TCGA-CR-7389	HNSC
TCGA-CR-7390	HNSC
TCGA-CR-7391	HNSC
TCGA-CR-7392	HNSC
TCGA-CR-7393	HNSC
TCGA-CR-7394	HNSC
TCGA-CR-7395	HNSC
TCGA-CR-7397	HNSC
TCGA-CR-7398	HNSC
TCGA-CR-7399	HNSC
TCGA-CR-7401	HNSC
TCGA-CR-7402	HNSC
TCGA-CR-7404	HNSC
TCGA-CS-4938	LGG
TCGA-CS-4941	LGG
TCGA-CS-4942	LGG
TCGA-CS-4943	LGG
TCGA-CS-4944	LGG
TCGA-CS-5390	LGG
TCGA-CS-5393	LGG
TCGA-CS-5395	LGG
TCGA-CS-5396	LGG
TCGA-CS-5397	LGG
TCGA-CS-6186	LGG
TCGA-CS-6188	LGG
TCGA-CS-6290	LGG
TCGA-CS-6666	LGG
TCGA-CS-6667	LGG
TCGA-CS-6668	LGG
TCGA-CS-6669	LGG
TCGA-CS-6670	LGG
TCGA-CU-A0YN	BLCA
TCGA-CU-A0YO	BLCA
TCGA-CU-A0YR	BLCA
TCGA-CU-A3KJ	BLCA
TCGA-CV-5430	HNSC
TCGA-CV-5431	HNSC
TCGA-CV-5432	HNSC
TCGA-CV-5434	HNSC
TCGA-CV-5435	HNSC
TCGA-CV-5436	HNSC
TCGA-CV-5439	HNSC
TCGA-CV-5440	HNSC
TCGA-CV-5441	HNSC
TCGA-CV-5442	HNSC
TCGA-CV-5443	HNSC
TCGA-CV-5444	HNSC
TCGA-CV-5966	HNSC
TCGA-CV-5970	HNSC
TCGA-CV-5971	HNSC
TCGA-CV-5973	HNSC
TCGA-CV-5976	HNSC
TCGA-CV-5977	HNSC
TCGA-CV-5978	HNSC
TCGA-CV-5979	HNSC
TCGA-CV-6003	HNSC
TCGA-CV-6433	HNSC
TCGA-CV-6436	HNSC
TCGA-CV-6441	HNSC
TCGA-CV-6933	HNSC
TCGA-CV-6934	HNSC
TCGA-CV-6935	HNSC
TCGA-CV-6936	HNSC
TCGA-CV-6937	HNSC
TCGA-CV-6938	HNSC
TCGA-CV-6939	HNSC
TCGA-CV-6940	HNSC
TCGA-CV-6941	HNSC
TCGA-CV-6942	HNSC
TCGA-CV-6943	HNSC
TCGA-CV-6945	HNSC
TCGA-CV-6948	HNSC
TCGA-CV-6950	HNSC
TCGA-CV-6951	HNSC
TCGA-CV-6952	HNSC
TCGA-CV-6953	HNSC
TCGA-CV-6954	HNSC
TCGA-CV-6955	HNSC
TCGA-CV-6956	HNSC
TCGA-CV-6959	HNSC
TCGA-CV-6960	HNSC
TCGA-CV-6961	HNSC
TCGA-CV-6962	HNSC
TCGA-CV-7089	HNSC
TCGA-CV-7090	HNSC
TCGA-CV-7091	HNSC
TCGA-CV-7095	HNSC
TCGA-CV-7097	HNSC
TCGA-CV-7099	HNSC
TCGA-CV-7100	HNSC
TCGA-CV-7101	HNSC
TCGA-CV-7102	HNSC
TCGA-CV-7103	HNSC
TCGA-CV-7104	HNSC
TCGA-CV-7177	HNSC
TCGA-CV-7178	HNSC
TCGA-CV-7180	HNSC
TCGA-CV-7183	HNSC
TCGA-CV-7235	HNSC
TCGA-CV-7236	HNSC
TCGA-CV-7238	HNSC
TCGA-CV-7242	HNSC
TCGA-CV-7243	HNSC
TCGA-CV-7245	HNSC
TCGA-CV-7247	HNSC
TCGA-CV-7248	HNSC
TCGA-CV-7250	HNSC
TCGA-CV-7252	HNSC
TCGA-CV-7253	HNSC
TCGA-CV-7254	HNSC
TCGA-CV-7255	HNSC
TCGA-CV-7261	HNSC
TCGA-CV-7263	HNSC
TCGA-CV-7406	HNSC
TCGA-CV-7407	HNSC
TCGA-CV-7410	HNSC
TCGA-CV-7411	HNSC
TCGA-CV-7413	HNSC
TCGA-CV-7414	HNSC
TCGA-CV-7415	HNSC
TCGA-CV-7416	HNSC
TCGA-CV-7418	HNSC
TCGA-CV-7421	HNSC
TCGA-CV-7422	HNSC
TCGA-CV-7423	HNSC
TCGA-CV-7424	HNSC
TCGA-CV-7425	HNSC
TCGA-CV-7427	HNSC
TCGA-CV-7429	HNSC
TCGA-CV-7430	HNSC
TCGA-CV-7432	HNSC
TCGA-CV-7433	HNSC
TCGA-CV-7434	HNSC
TCGA-CV-7435	HNSC
TCGA-CV-7437	HNSC
TCGA-CV-7438	HNSC
TCGA-CV-7440	HNSC
TCGA-CW-5580	KIRC
TCGA-CW-5581	KIRC
TCGA-CW-5583	KIRC
TCGA-CW-5585	KIRC
TCGA-CW-5588	KIRC
TCGA-CW-5589	KIRC
TCGA-CW-5591	KIRC
TCGA-CW-6087	KIRC
TCGA-CW-6090	KIRC
TCGA-CW-6093	KIRC
TCGA-CX-7082	HNSC
TCGA-CX-7085	HNSC
TCGA-CX-7086	HNSC
TCGA-CX-7219	HNSC
TCGA-CZ-4853	KIRC
TCGA-CZ-4854	KIRC
TCGA-CZ-4856	KIRC
TCGA-CZ-4857	KIRC
TCGA-CZ-4858	KIRC
TCGA-CZ-4859	KIRC
TCGA-CZ-4861	KIRC
TCGA-CZ-4862	KIRC
TCGA-CZ-4863	KIRC
TCGA-CZ-4865	KIRC
TCGA-CZ-4866	KIRC
TCGA-CZ-5451	KIRC
TCGA-CZ-5452	KIRC
TCGA-CZ-5453	KIRC
TCGA-CZ-5454	KIRC
TCGA-CZ-5455	KIRC
TCGA-CZ-5456	KIRC
TCGA-CZ-5457	KIRC
TCGA-CZ-5458	KIRC
TCGA-CZ-5459	KIRC
TCGA-CZ-5460	KIRC
TCGA-CZ-5461	KIRC
TCGA-CZ-5462	KIRC
TCGA-CZ-5463	KIRC
TCGA-CZ-5465	KIRC
TCGA-CZ-5466	KIRC
TCGA-CZ-5467	KIRC
TCGA-CZ-5468	KIRC
TCGA-CZ-5469	KIRC
TCGA-CZ-5470	KIRC
TCGA-CZ-5982	KIRC
TCGA-CZ-5984	KIRC
TCGA-CZ-5985	KIRC
TCGA-CZ-5986	KIRC
TCGA-CZ-5987	KIRC
TCGA-CZ-5988	KIRC
TCGA-CZ-5989	KIRC
TCGA-D1-A0ZN	UCEC
TCGA-D1-A0ZO	UCEC
TCGA-D1-A0ZP	UCEC
TCGA-D1-A0ZQ	UCEC
TCGA-D1-A0ZR	UCEC
TCGA-D1-A0ZS	UCEC
TCGA-D1-A0ZU	UCEC
TCGA-D1-A0ZV	UCEC
TCGA-D1-A0ZZ	UCEC
TCGA-D1-A101	UCEC
TCGA-D1-A102	UCEC
TCGA-D1-A103	UCEC
TCGA-D1-A15V	UCEC
TCGA-D1-A15W	UCEC
TCGA-D1-A15X	UCEC
TCGA-D1-A15Z	UCEC
TCGA-D1-A160	UCEC
TCGA-D1-A161	UCEC
TCGA-D1-A163	UCEC
TCGA-D1-A165	UCEC
TCGA-D1-A167	UCEC
TCGA-D1-A168	UCEC
TCGA-D1-A169	UCEC
TCGA-D1-A16B	UCEC
TCGA-D1-A16D	UCEC
TCGA-D1-A16E	UCEC
TCGA-D1-A16F	UCEC
TCGA-D1-A16G	UCEC
TCGA-D1-A16I	UCEC
TCGA-D1-A16J	UCEC
TCGA-D1-A16N	UCEC
TCGA-D1-A16O	UCEC
TCGA-D1-A16Q	UCEC
TCGA-D1-A16R	UCEC
TCGA-D1-A16S	UCEC
TCGA-D1-A16X	UCEC
TCGA-D1-A16Y	UCEC
TCGA-D1-A174	UCEC
TCGA-D1-A176	UCEC
TCGA-D1-A177	UCEC
TCGA-D1-A17A	UCEC
TCGA-D1-A17B	UCEC
TCGA-D1-A17C	UCEC
TCGA-D1-A17D	UCEC
TCGA-D1-A17F	UCEC
TCGA-D1-A17H	UCEC
TCGA-D1-A17K	UCEC
TCGA-D1-A17L	UCEC
TCGA-D1-A17M	UCEC
TCGA-D1-A17N	UCEC
TCGA-D1-A17Q	UCEC
TCGA-D1-A17R	UCEC
TCGA-D1-A17S	UCEC
TCGA-D1-A17T	UCEC
TCGA-D1-A17U	UCEC
TCGA-D1-A1NU	UCEC
TCGA-D1-A1NX	UCEC
TCGA-D3-A1Q1	SKCM
TCGA-D3-A1Q3	SKCM
TCGA-D3-A1Q4	SKCM
TCGA-D3-A1Q5	SKCM
TCGA-D3-A1Q6	SKCM
TCGA-D3-A1Q7	SKCM
TCGA-D3-A1Q8	SKCM
TCGA-D3-A1Q9	SKCM
TCGA-D3-A1QA	SKCM
TCGA-D3-A1QB	SKCM
TCGA-D3-A2J6	SKCM
TCGA-D3-A2J7	SKCM
TCGA-D3-A2J8	SKCM
TCGA-D3-A2J9	SKCM
TCGA-D3-A2JA	SKCM
TCGA-D3-A2JB	SKCM
TCGA-D3-A2JC	SKCM
TCGA-D3-A2JD	SKCM
TCGA-D3-A2JF	SKCM
TCGA-D3-A2JG	SKCM
TCGA-D3-A2JH	SKCM
TCGA-D3-A2JK	SKCM
TCGA-D3-A2JL	SKCM
TCGA-D3-A2JN	SKCM
TCGA-D3-A2JO	SKCM
TCGA-D3-A2JP	SKCM
TCGA-D3-A3BZ	SKCM
TCGA-D3-A3C1	SKCM
TCGA-D3-A3C3	SKCM
TCGA-D3-A3C6	SKCM
TCGA-D3-A3C7	SKCM
TCGA-D3-A3C8	SKCM
TCGA-D3-A3CB	SKCM
TCGA-D3-A3CC	SKCM
TCGA-D3-A3CE	SKCM
TCGA-D3-A3CF	SKCM
TCGA-D3-A3ML	SKCM
TCGA-D3-A3MO	SKCM
TCGA-D3-A3MR	SKCM
TCGA-D3-A3MU	SKCM
TCGA-D3-A3MV	SKCM
TCGA-D6-6515	HNSC
TCGA-D6-6516	HNSC
TCGA-D6-6517	HNSC
TCGA-D6-6823	HNSC
TCGA-D6-6824	HNSC
TCGA-D6-6825	HNSC
TCGA-D6-6826	HNSC
TCGA-D6-6827	HNSC
TCGA-D7-5577	STAD
TCGA-D7-5578	STAD
TCGA-D7-6817	STAD
TCGA-D7-6818	STAD
TCGA-D7-6820	STAD
TCGA-D7-6822	STAD
TCGA-D8-A13Y	BRCA
TCGA-D8-A13Z	BRCA
TCGA-D8-A140	BRCA
TCGA-D8-A141	BRCA
TCGA-D8-A142	BRCA
TCGA-D8-A143	BRCA
TCGA-D8-A145	BRCA
TCGA-D8-A146	BRCA
TCGA-D8-A147	BRCA
TCGA-D8-A1J9	BRCA
TCGA-D8-A1JB	BRCA
TCGA-D8-A1JC	BRCA
TCGA-D8-A1JD	BRCA
TCGA-D8-A1JE	BRCA
TCGA-D8-A1JF	BRCA
TCGA-D8-A1JG	BRCA
TCGA-D8-A1JH	BRCA
TCGA-D8-A1JI	BRCA
TCGA-D8-A1JJ	BRCA
TCGA-D8-A1JK	BRCA
TCGA-D8-A1JL	BRCA
TCGA-D8-A1JM	BRCA
TCGA-D8-A1JN	BRCA
TCGA-D8-A1JP	BRCA
TCGA-D8-A1JS	BRCA
TCGA-D8-A1JT	BRCA
TCGA-D8-A1JU	BRCA
TCGA-D8-A1X5	BRCA
TCGA-D8-A1X6	BRCA
TCGA-D8-A1X7	BRCA
TCGA-D8-A1X8	BRCA
TCGA-D8-A1X9	BRCA
TCGA-D8-A1XA	BRCA
TCGA-D8-A1XB	BRCA
TCGA-D8-A1XC	BRCA
TCGA-D8-A1XF	BRCA
TCGA-D8-A1XG	BRCA
TCGA-D8-A1XJ	BRCA
TCGA-D8-A1XL	BRCA
TCGA-D8-A1XM	BRCA
TCGA-D8-A1XO	BRCA
TCGA-D8-A1XR	BRCA
TCGA-D8-A1XS	BRCA
TCGA-D8-A1XT	BRCA
TCGA-D8-A1XU	BRCA
TCGA-D8-A1XV	BRCA
TCGA-D8-A1XW	BRCA
TCGA-D8-A1XY	BRCA
TCGA-D8-A1XZ	BRCA
TCGA-D8-A1Y0	BRCA
TCGA-D8-A1Y1	BRCA
TCGA-D8-A1Y2	BRCA
TCGA-D8-A1Y3	BRCA
TCGA-D8-A27E	BRCA
TCGA-D8-A27F	BRCA
TCGA-D8-A27H	BRCA
TCGA-D8-A27I	BRCA
TCGA-D8-A27K	BRCA
TCGA-D8-A27L	BRCA
TCGA-D8-A27M	BRCA
TCGA-D8-A27N	BRCA
TCGA-D8-A27P	BRCA
TCGA-D8-A27R	BRCA
TCGA-D8-A27T	BRCA
TCGA-D8-A27W	BRCA
TCGA-D9-A148	SKCM
TCGA-D9-A149	SKCM
TCGA-D9-A1JW	SKCM
TCGA-D9-A1JX	SKCM
TCGA-D9-A1X3	SKCM
TCGA-DA-A1HV	SKCM
TCGA-DA-A1HW	SKCM
TCGA-DA-A1HY	SKCM
TCGA-DA-A1I0	SKCM
TCGA-DA-A1I1	SKCM
TCGA-DA-A1I2	SKCM
TCGA-DA-A1I4	SKCM
TCGA-DA-A1I5	SKCM
TCGA-DA-A1I7	SKCM
TCGA-DA-A1I8	SKCM
TCGA-DA-A1IA	SKCM
TCGA-DA-A1IB	SKCM
TCGA-DA-A1IC	SKCM
TCGA-DA-A3F2	SKCM
TCGA-DA-A3F3	SKCM
TCGA-DA-A3F5	SKCM
TCGA-DA-A3F8	SKCM
TCGA-DB-5270	LGG
TCGA-DB-5273	LGG
TCGA-DB-5274	LGG
TCGA-DB-5275	LGG
TCGA-DB-5276	LGG
TCGA-DB-5277	LGG
TCGA-DB-5278	LGG
TCGA-DB-5279	LGG
TCGA-DB-5280	LGG
TCGA-DB-5281	LGG
TCGA-DE-A0XZ	THCA
TCGA-DE-A0Y2	THCA
TCGA-DE-A0Y3	THCA
TCGA-DE-A2OL	THCA
TCGA-DE-A3KN	THCA
TCGA-DH-5140	LGG
TCGA-DH-5141	LGG
TCGA-DH-5142	LGG
TCGA-DH-5143	LGG
TCGA-DH-5144	LGG
TCGA-DI-A0WH	UCEC
TCGA-DI-A1NN	UCEC
TCGA-DJ-A13L	THCA
TCGA-DJ-A13M	THCA
TCGA-DJ-A13O	THCA
TCGA-DJ-A13P	THCA
TCGA-DJ-A13R	THCA
TCGA-DJ-A13S	THCA
TCGA-DJ-A13T	THCA
TCGA-DJ-A13U	THCA
TCGA-DJ-A13V	THCA
TCGA-DJ-A13W	THCA
TCGA-DJ-A13X	THCA
TCGA-DJ-A1QD	THCA
TCGA-DJ-A1QE	THCA
TCGA-DJ-A1QF	THCA
TCGA-DJ-A1QG	THCA
TCGA-DJ-A1QH	THCA
TCGA-DJ-A1QI	THCA
TCGA-DJ-A1QL	THCA
TCGA-DJ-A1QM	THCA
TCGA-DJ-A1QN	THCA
TCGA-DJ-A1QO	THCA
TCGA-DJ-A1QQ	THCA
TCGA-DJ-A2PN	THCA
TCGA-DJ-A2PO	THCA
TCGA-DJ-A2PP	THCA
TCGA-DJ-A2PQ	THCA
TCGA-DJ-A2PR	THCA
TCGA-DJ-A2PS	THCA
TCGA-DJ-A2PT	THCA
TCGA-DJ-A2PU	THCA
TCGA-DJ-A2PV	THCA
TCGA-DJ-A2PW	THCA
TCGA-DJ-A2PX	THCA
TCGA-DJ-A2PY	THCA
TCGA-DJ-A2PZ	THCA
TCGA-DJ-A2Q0	THCA
TCGA-DJ-A2Q1	THCA
TCGA-DJ-A2Q2	THCA
TCGA-DJ-A2Q3	THCA
TCGA-DJ-A2Q4	THCA
TCGA-DJ-A2Q5	THCA
TCGA-DJ-A2Q6	THCA
TCGA-DJ-A2Q7	THCA
TCGA-DJ-A2Q9	THCA
TCGA-DJ-A2QA	THCA
TCGA-DJ-A2QB	THCA
TCGA-DJ-A2QC	THCA
TCGA-DJ-A3UK	THCA
TCGA-DJ-A3UM	THCA
TCGA-DJ-A3UN	THCA
TCGA-DJ-A3UO	THCA
TCGA-DJ-A3UP	THCA
TCGA-DJ-A3UQ	THCA
TCGA-DJ-A3UR	THCA
TCGA-DJ-A3US	THCA
TCGA-DJ-A3UT	THCA
TCGA-DJ-A3UU	THCA
TCGA-DJ-A3UV	THCA
TCGA-DJ-A3UW	THCA
TCGA-DJ-A3UX	THCA
TCGA-DJ-A3UY	THCA
TCGA-DK-A1A3	BLCA
TCGA-DK-A1A5	BLCA
TCGA-DK-A1A6	BLCA
TCGA-DK-A1A7	BLCA
TCGA-DK-A1AA	BLCA
TCGA-DK-A1AB	BLCA
TCGA-DK-A1AC	BLCA
TCGA-DK-A1AD	BLCA
TCGA-DK-A1AE	BLCA
TCGA-DK-A1AF	BLCA
TCGA-DK-A1AG	BLCA
TCGA-DK-A2HX	BLCA
TCGA-DK-A2I1	BLCA
TCGA-DK-A2I2	BLCA
TCGA-DK-A2I4	BLCA
TCGA-DK-A2I6	BLCA
TCGA-DK-A3IK	BLCA
TCGA-DK-A3IL	BLCA
TCGA-DK-A3IM	BLCA
TCGA-DK-A3IN	BLCA
TCGA-DK-A3IQ	BLCA
TCGA-DK-A3IS	BLCA
TCGA-DK-A3IT	BLCA
TCGA-DK-A3IU	BLCA
TCGA-DK-A3IV	BLCA
TCGA-DO-A1JZ	THCA
TCGA-DO-A1K0	THCA
TCGA-DO-A2HM	THCA
TCGA-DQ-5624	HNSC
TCGA-DQ-5625	HNSC
TCGA-DQ-5629	HNSC
TCGA-DQ-5630	HNSC
TCGA-DQ-5631	HNSC
TCGA-DQ-7588	HNSC
TCGA-DQ-7591	HNSC
TCGA-DQ-7592	HNSC
TCGA-DU-5847	LGG
TCGA-DU-5849	LGG
TCGA-DU-5852	LGG
TCGA-DU-5853	LGG
TCGA-DU-5854	LGG
TCGA-DU-5855	LGG
TCGA-DU-5870	LGG
TCGA-DU-5871	LGG
TCGA-DU-5872	LGG
TCGA-DU-5874	LGG
TCGA-DU-6392	LGG
TCGA-DU-6393	LGG
TCGA-DU-6394	LGG
TCGA-DU-6395	LGG
TCGA-DU-6396	LGG
TCGA-DU-6397	LGG
TCGA-DU-6399	LGG
TCGA-DU-6400	LGG
TCGA-DU-6401	LGG
TCGA-DU-6402	LGG
TCGA-DU-6403	LGG
TCGA-DU-6404	LGG
TCGA-DU-6405	LGG
TCGA-DU-6406	LGG
TCGA-DU-6407	LGG
TCGA-DU-6408	LGG
TCGA-DU-6410	LGG
TCGA-DU-6542	LGG
TCGA-DU-7006	LGG
TCGA-DU-7007	LGG
TCGA-DU-7008	LGG
TCGA-DU-7009	LGG
TCGA-DU-7013	LGG
TCGA-DU-7018	LGG
TCGA-DU-7019	LGG
TCGA-DU-7290	LGG
TCGA-DU-7292	LGG
TCGA-DU-7294	LGG
TCGA-DU-7298	LGG
TCGA-DU-7299	LGG
TCGA-DU-7300	LGG
TCGA-DU-7301	LGG
TCGA-DU-7302	LGG
TCGA-DU-7304	LGG
TCGA-DU-7306	LGG
TCGA-DU-7309	LGG
TCGA-DU-8158	LGG
TCGA-DU-8161	LGG
TCGA-DU-8162	LGG
TCGA-DU-8163	LGG
TCGA-DU-8164	LGG
TCGA-DU-8165	LGG
TCGA-DU-8166	LGG
TCGA-DU-8167	LGG
TCGA-DU-8168	LGG
TCGA-DV-5565	KIRC
TCGA-DV-5566	KIRC
TCGA-DV-5568	KIRC
TCGA-DV-5569	KIRC
TCGA-DV-5574	KIRC
TCGA-DV-5575	KIRC
TCGA-DV-5576	KIRC
TCGA-DW-5560	KIRP
TCGA-DW-5561	KIRP
TCGA-DW-7834	KIRP
TCGA-DW-7837	KIRP
TCGA-DW-7838	KIRP
TCGA-DW-7839	KIRP
TCGA-DW-7840	KIRP
TCGA-DW-7841	KIRP
TCGA-DW-7842	KIRP
TCGA-DZ-6131	KIRP
TCGA-DZ-6132	KIRP
TCGA-DZ-6133	KIRP
TCGA-DZ-6134	KIRP
TCGA-DZ-6135	KIRP
TCGA-E1-5302	LGG
TCGA-E1-5303	LGG
TCGA-E1-5304	LGG
TCGA-E1-5305	LGG
TCGA-E1-5307	LGG
TCGA-E1-5311	LGG
TCGA-E1-5318	LGG
TCGA-E1-5319	LGG
TCGA-E1-5322	LGG
TCGA-E2-A105	BRCA
TCGA-E2-A107	BRCA
TCGA-E2-A108	BRCA
TCGA-E2-A109	BRCA
TCGA-E2-A10A	BRCA
TCGA-E2-A10B	BRCA
TCGA-E2-A10C	BRCA
TCGA-E2-A10E	BRCA
TCGA-E2-A10F	BRCA
TCGA-E2-A14N	BRCA
TCGA-E2-A14O	BRCA
TCGA-E2-A14P	BRCA
TCGA-E2-A14Q	BRCA
TCGA-E2-A14R	BRCA
TCGA-E2-A14S	BRCA
TCGA-E2-A14T	BRCA
TCGA-E2-A14V	BRCA
TCGA-E2-A14W	BRCA
TCGA-E2-A14X	BRCA
TCGA-E2-A14Y	BRCA
TCGA-E2-A14Z	BRCA
TCGA-E2-A150	BRCA
TCGA-E2-A152	BRCA
TCGA-E2-A153	BRCA
TCGA-E2-A154	BRCA
TCGA-E2-A155	BRCA
TCGA-E2-A156	BRCA
TCGA-E2-A158	BRCA
TCGA-E2-A159	BRCA
TCGA-E2-A15A	BRCA
TCGA-E2-A15C	BRCA
TCGA-E2-A15D	BRCA
TCGA-E2-A15E	BRCA
TCGA-E2-A15F	BRCA
TCGA-E2-A15G	BRCA
TCGA-E2-A15H	BRCA
TCGA-E2-A15I	BRCA
TCGA-E2-A15J	BRCA
TCGA-E2-A15K	BRCA
TCGA-E2-A15L	BRCA
TCGA-E2-A15M	BRCA
TCGA-E2-A15O	BRCA
TCGA-E2-A15P	BRCA
TCGA-E2-A15R	BRCA
TCGA-E2-A15S	BRCA
TCGA-E2-A15T	BRCA
TCGA-E2-A1AZ	BRCA
TCGA-E2-A1B0	BRCA
TCGA-E2-A1B1	BRCA
TCGA-E2-A1B4	BRCA
TCGA-E2-A1B5	BRCA
TCGA-E2-A1B6	BRCA
TCGA-E2-A1BC	BRCA
TCGA-E2-A1BD	BRCA
TCGA-E2-A1IE	BRCA
TCGA-E2-A1IF	BRCA
TCGA-E2-A1IG	BRCA
TCGA-E2-A1IH	BRCA
TCGA-E2-A1II	BRCA
TCGA-E2-A1IJ	BRCA
TCGA-E2-A1IK	BRCA
TCGA-E2-A1IL	BRCA
TCGA-E2-A1IN	BRCA
TCGA-E2-A1IO	BRCA
TCGA-E2-A1IU	BRCA
TCGA-E2-A1L6	BRCA
TCGA-E2-A1L7	BRCA
TCGA-E2-A1L8	BRCA
TCGA-E2-A1L9	BRCA
TCGA-E2-A1LA	BRCA
TCGA-E2-A1LB	BRCA
TCGA-E2-A1LG	BRCA
TCGA-E2-A1LH	BRCA
TCGA-E2-A1LI	BRCA
TCGA-E2-A1LK	BRCA
TCGA-E2-A1LL	BRCA
TCGA-E2-A1LS	BRCA
TCGA-E3-A3DY	THCA
TCGA-E3-A3DZ	THCA
TCGA-E3-A3E0	THCA
TCGA-E3-A3E1	THCA
TCGA-E3-A3E2	THCA
TCGA-E3-A3E3	THCA
TCGA-E3-A3E5	THCA
TCGA-E5-A2PC	BLCA
TCGA-E6-A1LZ	UCEC
TCGA-E8-A242	THCA
TCGA-E8-A2EA	THCA
TCGA-E9-A1N3	BRCA
TCGA-E9-A1N4	BRCA
TCGA-E9-A1N5	BRCA
TCGA-E9-A1N8	BRCA
TCGA-E9-A1N9	BRCA
TCGA-E9-A1NA	BRCA
TCGA-E9-A1NC	BRCA
TCGA-E9-A1ND	BRCA
TCGA-E9-A1NE	BRCA
TCGA-E9-A1NF	BRCA
TCGA-E9-A1NG	BRCA
TCGA-E9-A1NH	BRCA
TCGA-E9-A1NI	BRCA
TCGA-E9-A1QZ	BRCA
TCGA-E9-A1R0	BRCA
TCGA-E9-A1R2	BRCA
TCGA-E9-A1R3	BRCA
TCGA-E9-A1R4	BRCA
TCGA-E9-A1R5	BRCA
TCGA-E9-A1R6	BRCA
TCGA-E9-A1R7	BRCA
TCGA-E9-A1RA	BRCA
TCGA-E9-A1RB	BRCA
TCGA-E9-A1RC	BRCA
TCGA-E9-A1RD	BRCA
TCGA-E9-A1RE	BRCA
TCGA-E9-A1RF	BRCA
TCGA-E9-A1RG	BRCA
TCGA-E9-A1RH	BRCA
TCGA-E9-A1RI	BRCA
TCGA-E9-A226	BRCA
TCGA-E9-A227	BRCA
TCGA-E9-A228	BRCA
TCGA-E9-A229	BRCA
TCGA-E9-A22A	BRCA
TCGA-E9-A22B	BRCA
TCGA-E9-A22D	BRCA
TCGA-E9-A22E	BRCA
TCGA-E9-A22G	BRCA
TCGA-E9-A22H	BRCA
TCGA-E9-A243	BRCA
TCGA-E9-A244	BRCA
TCGA-E9-A245	BRCA
TCGA-E9-A247	BRCA
TCGA-E9-A248	BRCA
TCGA-E9-A249	BRCA
TCGA-E9-A24A	BRCA
TCGA-E9-A295	BRCA
TCGA-EB-A1NK	SKCM
TCGA-EB-A24C	SKCM
TCGA-EB-A24D	SKCM
TCGA-EB-A299	SKCM
TCGA-EB-A3HV	SKCM
TCGA-EE-A17X	SKCM
TCGA-EE-A17Y	SKCM
TCGA-EE-A17Z	SKCM
TCGA-EE-A180	SKCM
TCGA-EE-A181	SKCM
TCGA-EE-A182	SKCM
TCGA-EE-A183	SKCM
TCGA-EE-A184	SKCM
TCGA-EE-A185	SKCM
TCGA-EE-A20B	SKCM
TCGA-EE-A20C	SKCM
TCGA-EE-A20F	SKCM
TCGA-EE-A20H	SKCM
TCGA-EE-A20I	SKCM
TCGA-EE-A29A	SKCM
TCGA-EE-A29B	SKCM
TCGA-EE-A29C	SKCM
TCGA-EE-A29D	SKCM
TCGA-EE-A29E	SKCM
TCGA-EE-A29G	SKCM
TCGA-EE-A29H	SKCM
TCGA-EE-A29L	SKCM
TCGA-EE-A29M	SKCM
TCGA-EE-A29N	SKCM
TCGA-EE-A29P	SKCM
TCGA-EE-A29Q	SKCM
TCGA-EE-A29R	SKCM
TCGA-EE-A29S	SKCM
TCGA-EE-A29T	SKCM
TCGA-EE-A29V	SKCM
TCGA-EE-A29W	SKCM
TCGA-EE-A29X	SKCM
TCGA-EE-A2A0	SKCM
TCGA-EE-A2A1	SKCM
TCGA-EE-A2A2	SKCM
TCGA-EE-A2A5	SKCM
TCGA-EE-A2A6	SKCM
TCGA-EE-A2GB	SKCM
TCGA-EE-A2GC	SKCM
TCGA-EE-A2GD	SKCM
TCGA-EE-A2GE	SKCM
TCGA-EE-A2GH	SKCM
TCGA-EE-A2GI	SKCM
TCGA-EE-A2GJ	SKCM
TCGA-EE-A2GK	SKCM
TCGA-EE-A2GL	SKCM
TCGA-EE-A2GM	SKCM
TCGA-EE-A2GN	SKCM
TCGA-EE-A2GO	SKCM
TCGA-EE-A2GP	SKCM
TCGA-EE-A2GR	SKCM
TCGA-EE-A2GS	SKCM
TCGA-EE-A2GT	SKCM
TCGA-EE-A2GU	SKCM
TCGA-EE-A2M5	SKCM
TCGA-EE-A2M6	SKCM
TCGA-EE-A2M7	SKCM
TCGA-EE-A2M8	SKCM
TCGA-EE-A2MC	SKCM
TCGA-EE-A2MD	SKCM
TCGA-EE-A2ME	SKCM
TCGA-EE-A2MF	SKCM
TCGA-EE-A2MG	SKCM
TCGA-EE-A2MH	SKCM
TCGA-EE-A2MI	SKCM
TCGA-EE-A2MJ	SKCM
TCGA-EE-A2MK	SKCM
TCGA-EE-A2ML	SKCM
TCGA-EE-A2MM	SKCM
TCGA-EE-A2MN	SKCM
TCGA-EE-A2MP	SKCM
TCGA-EE-A2MQ	SKCM
TCGA-EE-A2MR	SKCM
TCGA-EE-A2MS	SKCM
TCGA-EE-A2MT	SKCM
TCGA-EE-A2MU	SKCM
TCGA-EE-A3AA	SKCM
TCGA-EE-A3AB	SKCM
TCGA-EE-A3AC	SKCM
TCGA-EE-A3AD	SKCM
TCGA-EE-A3AE	SKCM
TCGA-EE-A3AF	SKCM
TCGA-EE-A3AG	SKCM
TCGA-EE-A3AH	SKCM
TCGA-EE-A3J3	SKCM
TCGA-EE-A3J4	SKCM
TCGA-EE-A3J5	SKCM
TCGA-EE-A3J7	SKCM
TCGA-EE-A3J8	SKCM
TCGA-EE-A3JA	SKCM
TCGA-EE-A3JB	SKCM
TCGA-EE-A3JD	SKCM
TCGA-EE-A3JE	SKCM
TCGA-EE-A3JH	SKCM
TCGA-EE-A3JI	SKCM
TCGA-EJ-5494	PRAD
TCGA-EJ-5495	PRAD
TCGA-EJ-5496	PRAD
TCGA-EJ-5497	PRAD
TCGA-EJ-5498	PRAD
TCGA-EJ-5499	PRAD
TCGA-EJ-5501	PRAD
TCGA-EJ-5502	PRAD
TCGA-EJ-5503	PRAD
TCGA-EJ-5504	PRAD
TCGA-EJ-5505	PRAD
TCGA-EJ-5506	PRAD
TCGA-EJ-5507	PRAD
TCGA-EJ-5508	PRAD
TCGA-EJ-5509	PRAD
TCGA-EJ-5510	PRAD
TCGA-EJ-5511	PRAD
TCGA-EJ-5512	PRAD
TCGA-EJ-5514	PRAD
TCGA-EJ-5515	PRAD
TCGA-EJ-5516	PRAD
TCGA-EJ-5517	PRAD
TCGA-EJ-5518	PRAD
TCGA-EJ-5519	PRAD
TCGA-EJ-5521	PRAD
TCGA-EJ-5522	PRAD
TCGA-EJ-5524	PRAD
TCGA-EJ-5525	PRAD
TCGA-EJ-5526	PRAD
TCGA-EJ-5527	PRAD
TCGA-EJ-5530	PRAD
TCGA-EJ-5531	PRAD
TCGA-EJ-5532	PRAD
TCGA-EJ-5542	PRAD
TCGA-EL-A3CL	THCA
TCGA-EL-A3CM	THCA
TCGA-EL-A3CN	THCA
TCGA-EL-A3CO	THCA
TCGA-EL-A3CP	THCA
TCGA-EL-A3CR	THCA
TCGA-EL-A3CS	THCA
TCGA-EL-A3CT	THCA
TCGA-EL-A3CU	THCA
TCGA-EL-A3CV	THCA
TCGA-EL-A3CW	THCA
TCGA-EL-A3CX	THCA
TCGA-EL-A3CY	THCA
TCGA-EL-A3CZ	THCA
TCGA-EL-A3D0	THCA
TCGA-EL-A3D1	THCA
TCGA-EL-A3D4	THCA
TCGA-EL-A3D5	THCA
TCGA-EL-A3D6	THCA
TCGA-EL-A3GO	THCA
TCGA-EL-A3GP	THCA
TCGA-EL-A3GQ	THCA
TCGA-EL-A3GR	THCA
TCGA-EL-A3GS	THCA
TCGA-EL-A3GU	THCA
TCGA-EL-A3GV	THCA
TCGA-EL-A3GW	THCA
TCGA-EL-A3GX	THCA
TCGA-EL-A3GY	THCA
TCGA-EL-A3GZ	THCA
TCGA-EL-A3H1	THCA
TCGA-EL-A3H2	THCA
TCGA-EL-A3H3	THCA
TCGA-EL-A3H4	THCA
TCGA-EL-A3H5	THCA
TCGA-EL-A3H7	THCA
TCGA-EL-A3H8	THCA
TCGA-EL-A3MW	THCA
TCGA-EL-A3MX	THCA
TCGA-EL-A3MY	THCA
TCGA-EL-A3MZ	THCA
TCGA-EL-A3N2	THCA
TCGA-EL-A3N3	THCA
TCGA-EL-A3T0	THCA
TCGA-EL-A3T1	THCA
TCGA-EL-A3T2	THCA
TCGA-EL-A3T3	THCA
TCGA-EL-A3T6	THCA
TCGA-EL-A3T7	THCA
TCGA-EL-A3T8	THCA
TCGA-EL-A3T9	THCA
TCGA-EL-A3TA	THCA
TCGA-EL-A3TB	THCA
TCGA-EM-A1CS	THCA
TCGA-EM-A1CT	THCA
TCGA-EM-A1CU	THCA
TCGA-EM-A1CV	THCA
TCGA-EM-A1CW	THCA
TCGA-EM-A1YA	THCA
TCGA-EM-A1YB	THCA
TCGA-EM-A1YC	THCA
TCGA-EM-A1YD	THCA
TCGA-EM-A1YE	THCA
TCGA-EM-A22I	THCA
TCGA-EM-A22J	THCA
TCGA-EM-A22K	THCA
TCGA-EM-A22L	THCA
TCGA-EM-A22M	THCA
TCGA-EM-A22N	THCA
TCGA-EM-A22O	THCA
TCGA-EM-A22P	THCA
TCGA-EM-A22Q	THCA
TCGA-EM-A2CJ	THCA
TCGA-EM-A2CK	THCA
TCGA-EM-A2CL	THCA
TCGA-EM-A2CM	THCA
TCGA-EM-A2CN	THCA
TCGA-EM-A2CO	THCA
TCGA-EM-A2CP	THCA
TCGA-EM-A2CQ	THCA
TCGA-EM-A2CR	THCA
TCGA-EM-A2CT	THCA
TCGA-EM-A2CU	THCA
TCGA-EM-A2OV	THCA
TCGA-EM-A2OW	THCA
TCGA-EM-A2OX	THCA
TCGA-EM-A2OY	THCA
TCGA-EM-A2P0	THCA
TCGA-EM-A2P1	THCA
TCGA-EM-A2P2	THCA
TCGA-EM-A2P3	THCA
TCGA-EM-A3AI	THCA
TCGA-EM-A3AJ	THCA
TCGA-EM-A3AK	THCA
TCGA-EM-A3AL	THCA
TCGA-EM-A3AN	THCA
TCGA-EM-A3AO	THCA
TCGA-EM-A3AP	THCA
TCGA-EM-A3AQ	THCA
TCGA-EM-A3AR	THCA
TCGA-EM-A3FJ	THCA
TCGA-EM-A3FK	THCA
TCGA-EM-A3FL	THCA
TCGA-EM-A3FM	THCA
TCGA-EM-A3FN	THCA
TCGA-EM-A3FO	THCA
TCGA-EM-A3FP	THCA
TCGA-EM-A3FQ	THCA
TCGA-EM-A3FR	THCA
TCGA-EM-A3O3	THCA
TCGA-EM-A3O6	THCA
TCGA-EM-A3O7	THCA
TCGA-EM-A3O8	THCA
TCGA-EM-A3O9	THCA
TCGA-EM-A3OA	THCA
TCGA-EM-A3OB	THCA
TCGA-EO-A1Y5	UCEC
TCGA-EO-A1Y8	UCEC
TCGA-ER-A193	SKCM
TCGA-ER-A194	SKCM
TCGA-ER-A195	SKCM
TCGA-ER-A196	SKCM
TCGA-ER-A197	SKCM
TCGA-ER-A198	SKCM
TCGA-ER-A199	SKCM
TCGA-ER-A19A	SKCM
TCGA-ER-A19B	SKCM
TCGA-ER-A19C	SKCM
TCGA-ER-A19D	SKCM
TCGA-ER-A19E	SKCM
TCGA-ER-A19F	SKCM
TCGA-ER-A19G	SKCM
TCGA-ER-A19H	SKCM
TCGA-ER-A19J	SKCM
TCGA-ER-A19K	SKCM
TCGA-ER-A19L	SKCM
TCGA-ER-A19N	SKCM
TCGA-ER-A19O	SKCM
TCGA-ER-A19P	SKCM
TCGA-ER-A19Q	SKCM
TCGA-ER-A19S	SKCM
TCGA-ER-A19T	SKCM
TCGA-ER-A1A1	SKCM
TCGA-ER-A2NC	SKCM
TCGA-ER-A2ND	SKCM
TCGA-ER-A2NE	SKCM
TCGA-ER-A2NF	SKCM
TCGA-ER-A2NG	SKCM
TCGA-ER-A2NH	SKCM
TCGA-ER-A3ES	SKCM
TCGA-ER-A3ET	SKCM
TCGA-ER-A3EV	SKCM
TCGA-ET-A25G	THCA
TCGA-ET-A25I	THCA
TCGA-ET-A25J	THCA
TCGA-ET-A25K	THCA
TCGA-ET-A25O	THCA
TCGA-ET-A25R	THCA
TCGA-ET-A2MY	THCA
TCGA-ET-A2MZ	THCA
TCGA-ET-A2N0	THCA
TCGA-ET-A2N4	THCA
TCGA-ET-A2N5	THCA
TCGA-ET-A39I	THCA
TCGA-ET-A39J	THCA
TCGA-ET-A39K	THCA
TCGA-ET-A39L	THCA
TCGA-ET-A39M	THCA
TCGA-ET-A39N	THCA
TCGA-ET-A39O	THCA
TCGA-ET-A39P	THCA
TCGA-ET-A39R	THCA
TCGA-ET-A39S	THCA
TCGA-ET-A39T	THCA
TCGA-ET-A3BN	THCA
TCGA-ET-A3BO	THCA
TCGA-ET-A3BP	THCA
TCGA-ET-A3BQ	THCA
TCGA-ET-A3BS	THCA
TCGA-ET-A3BT	THCA
TCGA-ET-A3BU	THCA
TCGA-ET-A3BV	THCA
TCGA-ET-A3BW	THCA
TCGA-ET-A3BX	THCA
TCGA-ET-A3DO	THCA
TCGA-ET-A3DP	THCA
TCGA-ET-A3DQ	THCA
TCGA-ET-A3DR	THCA
TCGA-ET-A3DS	THCA
TCGA-ET-A3DT	THCA
TCGA-ET-A3DU	THCA
TCGA-ET-A3DV	THCA
TCGA-ET-A3DW	THCA
TCGA-EU-5904	KIRC
TCGA-EU-5905	KIRC
TCGA-EU-5906	KIRC
TCGA-EU-5907	KIRC
TCGA-EV-5901	KIRP
TCGA-EV-5902	KIRP
TCGA-EV-5903	KIRP
TCGA-EW-A1IW	BRCA
TCGA-EW-A1IX	BRCA
TCGA-EW-A1IY	BRCA
TCGA-EW-A1IZ	BRCA
TCGA-EW-A1J1	BRCA
TCGA-EW-A1J2	BRCA
TCGA-EW-A1J3	BRCA
TCGA-EW-A1J5	BRCA
TCGA-EW-A1J6	BRCA
TCGA-EW-A1OV	BRCA
TCGA-EW-A1OX	BRCA
TCGA-EW-A1OY	BRCA
TCGA-EW-A1OZ	BRCA
TCGA-EW-A1P0	BRCA
TCGA-EW-A1P1	BRCA
TCGA-EW-A1P3	BRCA
TCGA-EW-A1P4	BRCA
TCGA-EW-A1P5	BRCA
TCGA-EW-A1P6	BRCA
TCGA-EW-A1P7	BRCA
TCGA-EW-A1P8	BRCA
TCGA-EW-A1PA	BRCA
TCGA-EW-A1PB	BRCA
TCGA-EW-A1PD	BRCA
TCGA-EW-A1PE	BRCA
TCGA-EW-A1PG	BRCA
TCGA-EW-A1PH	BRCA
TCGA-EY-A1GS	UCEC
TCGA-EY-A212	UCEC
TCGA-EZ-7264	LGG
TCGA-F7-7848	HNSC
TCGA-FD-A3B3	BLCA
TCGA-FD-A3B4	BLCA
TCGA-FD-A3B5	BLCA
TCGA-FD-A3B6	BLCA
TCGA-FD-A3B7	BLCA
TCGA-FD-A3B8	BLCA
TCGA-FD-A3N5	BLCA
TCGA-FD-A3N6	BLCA
TCGA-FD-A3NA	BLCA
TCGA-FE-A22Z	THCA
TCGA-FE-A230	THCA
TCGA-FE-A231	THCA
TCGA-FE-A232	THCA
TCGA-FE-A233	THCA
TCGA-FE-A234	THCA
TCGA-FE-A235	THCA
TCGA-FE-A236	THCA
TCGA-FE-A237	THCA
TCGA-FE-A23A	THCA
TCGA-FE-A3PB	THCA
TCGA-FE-A3PC	THCA
TCGA-FE-A3PD	THCA
TCGA-FG-5962	LGG
TCGA-FG-5963	LGG
TCGA-FG-5964	LGG
TCGA-FG-5965	LGG
TCGA-FG-6688	LGG
TCGA-FG-6689	LGG
TCGA-FG-6690	LGG
TCGA-FG-6691	LGG
TCGA-FG-6692	LGG
TCGA-FG-7634	LGG
TCGA-FG-7636	LGG
TCGA-FG-7637	LGG
TCGA-FG-7638	LGG
TCGA-FG-7641	LGG
TCGA-FG-7643	LGG
TCGA-FG-8181	LGG
TCGA-FG-8182	LGG
TCGA-FG-8185	LGG
TCGA-FG-8186	LGG
TCGA-FG-8187	LGG
TCGA-FG-8188	LGG
TCGA-FG-8191	LGG
TCGA-FI-A2D2	UCEC
TCGA-FI-A2EW	UCEC
TCGA-FI-A2EX	UCEC
TCGA-FI-A2F8	UCEC
TCGA-FK-A3S3	THCA
TCGA-FK-A3SB	THCA
TCGA-FK-A3SD	THCA
TCGA-FK-A3SE	THCA
TCGA-FK-A3SG	THCA
TCGA-FK-A3SH	THCA
TCGA-FN-7833	LGG
TCGA-FR-A2OS	SKCM
TCGA-FS-A1YW	SKCM
TCGA-FS-A1YX	SKCM
TCGA-FS-A1YY	SKCM
TCGA-FS-A1Z0	SKCM
TCGA-FS-A1Z3	SKCM
TCGA-FS-A1Z4	SKCM
TCGA-FS-A1Z7	SKCM
TCGA-FS-A1ZA	SKCM
TCGA-FS-A1ZB	SKCM
TCGA-FS-A1ZC	SKCM
TCGA-FS-A1ZD	SKCM
TCGA-FS-A1ZE	SKCM
TCGA-FS-A1ZF	SKCM
TCGA-FS-A1ZG	SKCM
TCGA-FS-A1ZH	SKCM
TCGA-FS-A1ZJ	SKCM
TCGA-FS-A1ZK	SKCM
TCGA-FS-A1ZM	SKCM
TCGA-FS-A1ZN	SKCM
TCGA-FS-A1ZP	SKCM
TCGA-FS-A1ZQ	SKCM
TCGA-FS-A1ZR	SKCM
TCGA-FS-A1ZS	SKCM
TCGA-FS-A1ZT	SKCM
TCGA-FS-A1ZU	SKCM
TCGA-FS-A1ZW	SKCM
TCGA-FS-A1ZY	SKCM
TCGA-FS-A1ZZ	SKCM
TCGA-FW-A3I3	SKCM
TCGA-FY-A2QD	THCA
TCGA-FY-A3BL	THCA
TCGA-FY-A3I4	THCA
TCGA-FY-A3I5	THCA
TCGA-FY-A3NM	THCA
TCGA-FY-A3NN	THCA
TCGA-FY-A3NP	THCA
TCGA-FY-A3ON	THCA
TCGA-FY-A3R6	THCA
TCGA-FY-A3R7	THCA
TCGA-FY-A3R8	THCA
TCGA-FY-A3R9	THCA
TCGA-FY-A3RA	THCA
TCGA-FY-A3W9	THCA
TCGA-FY-A3WA	THCA
TCGA-G2-A2EC	BLCA
TCGA-G2-A2EF	BLCA
TCGA-G2-A2EJ	BLCA
TCGA-G2-A2EK	BLCA
TCGA-G2-A2EL	BLCA
TCGA-G2-A2EO	BLCA
TCGA-G2-A2ES	BLCA
TCGA-G2-A3IB	BLCA
TCGA-G2-A3IE	BLCA
TCGA-G7-6789	KIRP
TCGA-G7-6790	KIRP
TCGA-G7-6792	KIRP
TCGA-G7-6793	KIRP
TCGA-G7-6795	KIRP
TCGA-G7-6796	KIRP
TCGA-G7-6797	KIRP
TCGA-G7-7501	KIRP
TCGA-G7-7502	KIRP
TCGA-G9-6332	PRAD
TCGA-G9-6336	PRAD
TCGA-G9-6348	PRAD
TCGA-G9-6356	PRAD
TCGA-G9-6362	PRAD
TCGA-G9-6363	PRAD
TCGA-G9-6364	PRAD
TCGA-G9-6365	PRAD
TCGA-G9-6367	PRAD
TCGA-G9-6370	PRAD
TCGA-G9-6371	PRAD
TCGA-G9-6373	PRAD
TCGA-G9-6378	PRAD
TCGA-G9-6384	PRAD
TCGA-G9-6385	PRAD
TCGA-G9-6494	PRAD
TCGA-G9-6496	PRAD
TCGA-GC-A3I6	BLCA
TCGA-GC-A3RB	BLCA
TCGA-GD-A2C5	BLCA
TCGA-GD-A3OP	BLCA
TCGA-GD-A3OQ	BLCA
TCGA-GD-A3OS	BLCA
TCGA-GE-A2C6	THCA
TCGA-GF-A2C7	SKCM
TCGA-GI-A2C8	BRCA
TCGA-GL-6846	KIRP
TCGA-GL-7773	KIRP
TCGA-GL-7966	KIRP
TCGA-GN-A262	SKCM
TCGA-GN-A263	SKCM
TCGA-GN-A264	SKCM
TCGA-GN-A265	SKCM
TCGA-GN-A266	SKCM
TCGA-GN-A267	SKCM
TCGA-GN-A268	SKCM
TCGA-GN-A26A	SKCM
TCGA-GN-A26C	SKCM
TCGA-GN-A26D	SKCM
TCGA-GV-A3JV	BLCA
TCGA-GV-A3JW	BLCA
TCGA-GV-A3JX	BLCA
TCGA-GV-A3JZ	BLCA
TCGA-GV-A3QG	BLCA
TCGA-GV-A3QH	BLCA
TCGA-GV-A3QI	BLCA
TCGA-H2-A26U	THCA
TCGA-H2-A2K9	THCA
TCGA-H2-A3RH	THCA
TCGA-H2-A3RI	THCA
TCGA-H4-A2HO	BLCA
TCGA-H4-A2HQ	BLCA
TCGA-H7-7774	HNSC
TCGA-HD-7229	HNSC
TCGA-HD-7753	HNSC
TCGA-HD-7754	HNSC
TCGA-HD-7831	HNSC
TCGA-HD-7832	HNSC
TCGA-HE-7128	KIRP
TCGA-HE-7129	KIRP
TCGA-HE-7130	KIRP
TCGA-HL-7533	HNSC
TCGA-HQ-A2OE	BLCA
TCGA-HR-A2OG	SKCM
TCGA-HR-A2OH	SKCM
TCGA-HT-7467	LGG
TCGA-HT-7468	LGG
TCGA-HT-7469	LGG
TCGA-HT-7470	LGG
TCGA-HT-7471	LGG
TCGA-HT-7472	LGG
TCGA-HT-7473	LGG
TCGA-HT-7474	LGG
TCGA-HT-7475	LGG
TCGA-HT-7476	LGG
TCGA-HT-7480	LGG
TCGA-HT-7482	LGG
TCGA-HT-7483	LGG
TCGA-HT-7601	LGG
TCGA-HT-7602	LGG
TCGA-HT-7603	LGG
TCGA-HT-7604	LGG
TCGA-HT-7605	LGG
TCGA-HT-7606	LGG
TCGA-HT-7607	LGG
TCGA-HT-7608	LGG
TCGA-HT-7609	LGG
TCGA-HT-7610	LGG
TCGA-HT-7616	LGG
TCGA-HT-7620	LGG
TCGA-HT-7677	LGG
TCGA-HT-7680	LGG
TCGA-HT-7684	LGG
TCGA-HT-7686	LGG
TCGA-HT-7687	LGG
TCGA-HT-7688	LGG
TCGA-HT-7689	LGG
TCGA-HT-7690	LGG
TCGA-HT-7691	LGG
TCGA-HT-7692	LGG
TCGA-HT-7693	LGG
TCGA-HT-7694	LGG
TCGA-HT-7695	LGG
TCGA-HT-7854	LGG
TCGA-HW-7486	LGG
TCGA-HW-7487	LGG
TCGA-HW-7489	LGG
TCGA-HW-7490	LGG
TCGA-HW-7491	LGG
TCGA-HW-7495	LGG
TCGA-IH-A3EA	SKCM
TCGA-IK-7675	LGG
TCGA-IK-8125	LGG
TCGA-IM-A3EB	THCA
TCGA-IM-A3ED	THCA
TCGA-IM-A3U2	THCA
TCGA-IM-A3U3	THCA
TCGA-IQ-7630	HNSC
TCGA-IQ-7631	HNSC
TCGA-IQ-7632	HNSC
TCGA-J7-6720	KIRP
TCGA-J8-A3NZ	THCA
TCGA-J8-A3O0	THCA
TCGA-J8-A3O1	THCA
